%YAML 1.1
%TAG !u! tag:unity3d.com,2011:
--- !u!74 &7400000
AnimationClip:
  m_ObjectHideFlags: 0
  m_CorrespondingSourceObject: {fileID: 0}
  m_PrefabInstance: {fileID: 0}
  m_PrefabAsset: {fileID: 0}
  m_Name: LongTapAnimation
  serializedVersion: 6
  m_Legacy: 0
  m_Compressed: 0
  m_UseHighQualityCurve: 1
  m_RotationCurves: []
  m_CompressedRotationCurves: []
  m_EulerCurves: []
  m_PositionCurves: []
  m_ScaleCurves:
  - curve:
      serializedVersion: 2
      m_Curve:
      - serializedVersion: 3
        time: 0.2
        value: {x: 0.08944821, y: 0.08944821, z: 0.08944821}
        inSlope: {x: 0, y: 0, z: 0}
        outSlope: {x: 0, y: 0, z: 0}
        tangentMode: 0
        weightedMode: 0
        inWeight: {x: 0.33333334, y: 0.33333334, z: 0.33333334}
        outWeight: {x: 0.33333334, y: 0.33333334, z: 0.33333334}
      - serializedVersion: 3
        time: 1.4666667
        value: {x: 1, y: 1, z: 1}
        inSlope: {x: 0, y: 0, z: 0}
        outSlope: {x: 0, y: 0, z: 0}
        tangentMode: 0
        weightedMode: 0
        inWeight: {x: 0.33333334, y: 0.33333334, z: 0.33333334}
        outWeight: {x: 0.33333334, y: 0.33333334, z: 0.33333334}
      - serializedVersion: 3
        time: 1.5
        value: {x: 0.08944821, y: 0.08944821, z: 0.08944821}
        inSlope: {x: 0, y: 0, z: 0}
        outSlope: {x: 0, y: 0, z: 0}
        tangentMode: 0
        weightedMode: 0
        inWeight: {x: 0.33333334, y: 0.33333334, z: 0.33333334}
        outWeight: {x: 0.33333334, y: 0.33333334, z: 0.33333334}
      - serializedVersion: 3
        time: 2.8666666
        value: {x: 1, y: 1, z: 1}
        inSlope: {x: 0, y: 0, z: 0}
        outSlope: {x: 0, y: 0, z: 0}
        tangentMode: 0
        weightedMode: 0
        inWeight: {x: 0.33333334, y: 0.33333334, z: 0.33333334}
        outWeight: {x: 0.33333334, y: 0.33333334, z: 0.33333334}
      m_PreInfinity: 2
      m_PostInfinity: 2
      m_RotationOrder: 4
    path: Image
  m_FloatCurves:
  - curve:
      serializedVersion: 2
      m_Curve:
      - serializedVersion: 3
        time: 0.16666667
        value: 0
        inSlope: 0
        outSlope: 0
        tangentMode: 136
        weightedMode: 0
        inWeight: 0.33333334
        outWeight: 0.33333334
      - serializedVersion: 3
        time: 0.2
        value: 0.5529412
        inSlope: 0
        outSlope: 0
        tangentMode: 136
        weightedMode: 0
        inWeight: 0.33333334
        outWeight: 0.33333334
      - serializedVersion: 3
        time: 1.4666667
        value: 0
        inSlope: 0
        outSlope: 0
        tangentMode: 136
        weightedMode: 0
        inWeight: 0.33333334
        outWeight: 0.33333334
      - serializedVersion: 3
        time: 1.5
        value: 0
        inSlope: 0
        outSlope: 0
        tangentMode: 136
        weightedMode: 0
        inWeight: 0.33333334
        outWeight: 0.33333334
      - serializedVersion: 3
        time: 1.5333333
        value: 0.5529412
        inSlope: 0
        outSlope: 0
        tangentMode: 136
        weightedMode: 0
        inWeight: 0.33333334
        outWeight: 0.33333334
      - serializedVersion: 3
        time: 2.8666666
        value: 0
        inSlope: 0
        outSlope: 0
        tangentMode: 136
        weightedMode: 0
        inWeight: 0.33333334
        outWeight: 0.33333334
      m_PreInfinity: 2
      m_PostInfinity: 2
      m_RotationOrder: 4
    attribute: m_Color.a
    path: Image
    classID: 114
    script: {fileID: 11500000, guid: fe87c0e1cc204ed48ad3b37840f39efc, type: 3}
  - curve:
      serializedVersion: 2
      m_Curve:
      - serializedVersion: 3
        time: 0
        value: 1
        inSlope: Infinity
        outSlope: Infinity
        tangentMode: 103
        weightedMode: 0
        inWeight: 0
        outWeight: 0
      m_PreInfinity: 2
      m_PostInfinity: 2
      m_RotationOrder: 4
    attribute: m_IsActive
    path: Text (TMP)
    classID: 1
    script: {fileID: 0}
  m_PPtrCurves:
  - curve:
    - time: 0
      value: {fileID: 21300000, guid: 121cb21ae969f074488678d99c21cee1, type: 3}
    - time: 0.033333335
      value: {fileID: 21300000, guid: d9a9e25c45abfc6488bfb066f7ebe868, type: 3}
    - time: 0.06666667
      value: {fileID: 21300000, guid: e7de61cb7a9ae9342a8a8b752da8196f, type: 3}
    - time: 0.1
      value: {fileID: 21300000, guid: dc4f7f46a4c070446a6d5988b22f3ab2, type: 3}
    - time: 0.13333334
      value: {fileID: 21300000, guid: 12af2621f1760764e8bd20e24b69f39f, type: 3}
    - time: 0.16666667
      value: {fileID: 21300000, guid: 16c1af44837c5c549af7a13ea48b104a, type: 3}
    - time: 0.2
      value: {fileID: 21300000, guid: b043e463c2c76f845a54823a48dd48cb, type: 3}
    - time: 0.23333333
      value: {fileID: 21300000, guid: c920d42a2e6c7ed4e9d7f16d4b41b78a, type: 3}
    - time: 0.26666668
      value: {fileID: 21300000, guid: 9b7499b1a75152c48adcce38318182f6, type: 3}
    - time: 0.3
      value: {fileID: 21300000, guid: 664848f2da52829429d44fc07897cd2f, type: 3}
    - time: 0.33333334
      value: {fileID: 21300000, guid: d8785f391ffe1a047a0b884d775be1fd, type: 3}
    - time: 0.36666667
      value: {fileID: 21300000, guid: 8d673eef5ee4b21418a0d823daef2960, type: 3}
    - time: 0.4
      value: {fileID: 21300000, guid: 26562e586396089458d3f3bbd7ca4d42, type: 3}
    - time: 0.43333334
      value: {fileID: 21300000, guid: dcb6c441e3cc147458a90595083b3f9c, type: 3}
    - time: 0.46666667
      value: {fileID: 21300000, guid: 43cba7c510542b14194c2981c006759d, type: 3}
    - time: 0.5
      value: {fileID: 21300000, guid: b84c995c265acf14fae7d17738467672, type: 3}
    - time: 0.53333336
      value: {fileID: 21300000, guid: 930e78bd76673e2469cbabb771a8de38, type: 3}
    - time: 0.56666666
      value: {fileID: 21300000, guid: 69240808e39171d49906f1901b98a4d4, type: 3}
    - time: 0.6
      value: {fileID: 21300000, guid: a159523242192b8419c7e4d9602bf181, type: 3}
    - time: 2.5
      value: {fileID: 21300000, guid: 524fcb1081752c744ad7af58508e776d, type: 3}
    - time: 2.5333333
      value: {fileID: 21300000, guid: f4fd85c1cbe2eac4c92eee499254ab6d, type: 3}
    - time: 2.5666666
      value: {fileID: 21300000, guid: ab6815a3e066c5a45a7552ab08395bd4, type: 3}
    - time: 2.6
      value: {fileID: 21300000, guid: 9d52524f54bd76f4cae551b585910816, type: 3}
    - time: 2.6333334
      value: {fileID: 21300000, guid: 2ed1b5f7802d9de4189b624456551204, type: 3}
    - time: 2.6666667
      value: {fileID: 21300000, guid: 4cb8055e51395d04da23fa6ca4f7f55d, type: 3}
    - time: 2.7
      value: {fileID: 21300000, guid: 9d5f2361cea310647a26078d09a0a96b, type: 3}
    - time: 2.7333333
      value: {fileID: 21300000, guid: e3a66d9aacd295148bea25bac70e2b45, type: 3}
    - time: 2.7666667
      value: {fileID: 21300000, guid: 4db58e5559e4fba42aaa5f4913fedcc9, type: 3}
    - time: 2.8
      value: {fileID: 21300000, guid: b957c62956c2a6a4fbcb890aa2fce59c, type: 3}
    - time: 2.8333333
      value: {fileID: 21300000, guid: f13700e5b4642ba49875a95918c5c01e, type: 3}
    - time: 2.8666666
      value: {fileID: 21300000, guid: 5387cc6451692d94caa658c33eba6703, type: 3}
    attribute: m_Sprite
    path: HandAnimation
    classID: 114
    script: {fileID: 11500000, guid: fe87c0e1cc204ed48ad3b37840f39efc, type: 3}
  m_SampleRate: 30
  m_WrapMode: 0
  m_Bounds:
    m_Center: {x: 0, y: 0, z: 0}
    m_Extent: {x: 0, y: 0, z: 0}
  m_ClipBindingConstant:
    genericBindings:
    - serializedVersion: 2
      path: 83635035
      attribute: 3
      script: {fileID: 0}
      typeID: 4
      customType: 0
      isPPtrCurve: 0
    - serializedVersion: 2
      path: 83635035
      attribute: 304273561
      script: {fileID: 11500000, guid: fe87c0e1cc204ed48ad3b37840f39efc, type: 3}
      typeID: 114
      customType: 0
      isPPtrCurve: 0
    - serializedVersion: 2
      path: 271242783
      attribute: 2086281974
      script: {fileID: 0}
      typeID: 1
      customType: 0
      isPPtrCurve: 0
    - serializedVersion: 2
      path: 1745432518
      attribute: 2015549526
      script: {fileID: 11500000, guid: fe87c0e1cc204ed48ad3b37840f39efc, type: 3}
      typeID: 114
      customType: 0
      isPPtrCurve: 1
    pptrCurveMapping:
    - {fileID: 21300000, guid: 121cb21ae969f074488678d99c21cee1, type: 3}
    - {fileID: 21300000, guid: d9a9e25c45abfc6488bfb066f7ebe868, type: 3}
    - {fileID: 21300000, guid: e7de61cb7a9ae9342a8a8b752da8196f, type: 3}
    - {fileID: 21300000, guid: dc4f7f46a4c070446a6d5988b22f3ab2, type: 3}
    - {fileID: 21300000, guid: 12af2621f1760764e8bd20e24b69f39f, type: 3}
    - {fileID: 21300000, guid: 16c1af44837c5c549af7a13ea48b104a, type: 3}
    - {fileID: 21300000, guid: b043e463c2c76f845a54823a48dd48cb, type: 3}
    - {fileID: 21300000, guid: c920d42a2e6c7ed4e9d7f16d4b41b78a, type: 3}
    - {fileID: 21300000, guid: 9b7499b1a75152c48adcce38318182f6, type: 3}
    - {fileID: 21300000, guid: 664848f2da52829429d44fc07897cd2f, type: 3}
    - {fileID: 21300000, guid: d8785f391ffe1a047a0b884d775be1fd, type: 3}
    - {fileID: 21300000, guid: 8d673eef5ee4b21418a0d823daef2960, type: 3}
    - {fileID: 21300000, guid: 26562e586396089458d3f3bbd7ca4d42, type: 3}
    - {fileID: 21300000, guid: dcb6c441e3cc147458a90595083b3f9c, type: 3}
    - {fileID: 21300000, guid: 43cba7c510542b14194c2981c006759d, type: 3}
    - {fileID: 21300000, guid: b84c995c265acf14fae7d17738467672, type: 3}
    - {fileID: 21300000, guid: 930e78bd76673e2469cbabb771a8de38, type: 3}
    - {fileID: 21300000, guid: 69240808e39171d49906f1901b98a4d4, type: 3}
    - {fileID: 21300000, guid: a159523242192b8419c7e4d9602bf181, type: 3}
    - {fileID: 21300000, guid: 524fcb1081752c744ad7af58508e776d, type: 3}
    - {fileID: 21300000, guid: f4fd85c1cbe2eac4c92eee499254ab6d, type: 3}
    - {fileID: 21300000, guid: ab6815a3e066c5a45a7552ab08395bd4, type: 3}
    - {fileID: 21300000, guid: 9d52524f54bd76f4cae551b585910816, type: 3}
    - {fileID: 21300000, guid: 2ed1b5f7802d9de4189b624456551204, type: 3}
    - {fileID: 21300000, guid: 4cb8055e51395d04da23fa6ca4f7f55d, type: 3}
    - {fileID: 21300000, guid: 9d5f2361cea310647a26078d09a0a96b, type: 3}
    - {fileID: 21300000, guid: e3a66d9aacd295148bea25bac70e2b45, type: 3}
    - {fileID: 21300000, guid: 4db58e5559e4fba42aaa5f4913fedcc9, type: 3}
    - {fileID: 21300000, guid: b957c62956c2a6a4fbcb890aa2fce59c, type: 3}
    - {fileID: 21300000, guid: f13700e5b4642ba49875a95918c5c01e, type: 3}
    - {fileID: 21300000, guid: 5387cc6451692d94caa658c33eba6703, type: 3}
  m_AnimationClipSettings:
    serializedVersion: 2
    m_AdditiveReferencePoseClip: {fileID: 0}
    m_AdditiveReferencePoseTime: 0
    m_StartTime: 0
    m_StopTime: 2.8999999
    m_OrientationOffsetY: 0
    m_Level: 0
    m_CycleOffset: 0
    m_HasAdditiveReferencePose: 0
    m_LoopTime: 1
    m_LoopBlend: 0
    m_LoopBlendOrientation: 0
    m_LoopBlendPositionY: 0
    m_LoopBlendPositionXZ: 0
    m_KeepOriginalOrientation: 0
    m_KeepOriginalPositionY: 1
    m_KeepOriginalPositionXZ: 0
    m_HeightFromFeet: 0
    m_Mirror: 0
  m_EditorCurves:
  - curve:
      serializedVersion: 2
      m_Curve:
      - serializedVersion: 3
        time: 0.2
        value: 0.08944821
        inSlope: 0
        outSlope: 0
        tangentMode: 136
        weightedMode: 0
        inWeight: 0.33333334
        outWeight: 0.33333334
      - serializedVersion: 3
        time: 1.4666667
        value: 1
        inSlope: 0
        outSlope: 0
        tangentMode: 136
        weightedMode: 0
        inWeight: 0.33333334
        outWeight: 0.33333334
      - serializedVersion: 3
        time: 1.5
        value: 0.08944821
        inSlope: 0
        outSlope: 0
        tangentMode: 136
        weightedMode: 0
        inWeight: 0.33333334
        outWeight: 0.33333334
      - serializedVersion: 3
        time: 2.8666666
        value: 1
        inSlope: 0
        outSlope: 0
        tangentMode: 136
        weightedMode: 0
        inWeight: 0.33333334
        outWeight: 0.33333334
      m_PreInfinity: 2
      m_PostInfinity: 2
      m_RotationOrder: 4
    attribute: m_LocalScale.x
    path: Image
    classID: 224
    script: {fileID: 0}
  - curve:
      serializedVersion: 2
      m_Curve:
      - serializedVersion: 3
        time: 0.2
        value: 0.08944821
        inSlope: 0
        outSlope: 0
        tangentMode: 136
        weightedMode: 0
        inWeight: 0.33333334
        outWeight: 0.33333334
      - serializedVersion: 3
        time: 1.4666667
        value: 1
        inSlope: 0
        outSlope: 0
        tangentMode: 136
        weightedMode: 0
        inWeight: 0.33333334
        outWeight: 0.33333334
      - serializedVersion: 3
        time: 1.5
        value: 0.08944821
        inSlope: 0
        outSlope: 0
        tangentMode: 136
        weightedMode: 0
        inWeight: 0.33333334
        outWeight: 0.33333334
      - serializedVersion: 3
        time: 2.8666666
        value: 1
        inSlope: 0
        outSlope: 0
        tangentMode: 136
        weightedMode: 0
        inWeight: 0.33333334
        outWeight: 0.33333334
      m_PreInfinity: 2
      m_PostInfinity: 2
      m_RotationOrder: 4
    attribute: m_LocalScale.y
    path: Image
    classID: 224
    script: {fileID: 0}
  - curve:
      serializedVersion: 2
      m_Curve:
      - serializedVersion: 3
        time: 0.2
        value: 0.08944821
        inSlope: 0
        outSlope: 0
        tangentMode: 136
        weightedMode: 0
        inWeight: 0.33333334
        outWeight: 0.33333334
      - serializedVersion: 3
        time: 1.4666667
        value: 1
        inSlope: 0
        outSlope: 0
        tangentMode: 136
        weightedMode: 0
        inWeight: 0.33333334
        outWeight: 0.33333334
      - serializedVersion: 3
        time: 1.5
        value: 0.08944821
        inSlope: 0
        outSlope: 0
        tangentMode: 136
        weightedMode: 0
        inWeight: 0.33333334
        outWeight: 0.33333334
      - serializedVersion: 3
        time: 2.8666666
        value: 1
        inSlope: 0
        outSlope: 0
        tangentMode: 136
        weightedMode: 0
        inWeight: 0.33333334
        outWeight: 0.33333334
      m_PreInfinity: 2
      m_PostInfinity: 2
      m_RotationOrder: 4
    attribute: m_LocalScale.z
    path: Image
    classID: 224
    script: {fileID: 0}
  - curve:
      serializedVersion: 2
      m_Curve:
      - serializedVersion: 3
        time: 0.16666667
        value: 0
        inSlope: 0
        outSlope: 0
        tangentMode: 136
        weightedMode: 0
        inWeight: 0.33333334
        outWeight: 0.33333334
      - serializedVersion: 3
        time: 0.2
        value: 0.5529412
        inSlope: 0
        outSlope: 0
        tangentMode: 136
        weightedMode: 0
        inWeight: 0.33333334
        outWeight: 0.33333334
      - serializedVersion: 3
        time: 1.4666667
        value: 0
        inSlope: 0
        outSlope: 0
        tangentMode: 136
        weightedMode: 0
        inWeight: 0.33333334
        outWeight: 0.33333334
      - serializedVersion: 3
        time: 1.5
        value: 0
        inSlope: 0
        outSlope: 0
        tangentMode: 136
        weightedMode: 0
        inWeight: 0.33333334
        outWeight: 0.33333334
      - serializedVersion: 3
        time: 1.5333333
        value: 0.5529412
        inSlope: 0
        outSlope: 0
        tangentMode: 136
        weightedMode: 0
        inWeight: 0.33333334
        outWeight: 0.33333334
      - serializedVersion: 3
        time: 2.8666666
        value: 0
        inSlope: 0
        outSlope: 0
        tangentMode: 136
        weightedMode: 0
        inWeight: 0.33333334
        outWeight: 0.33333334
      m_PreInfinity: 2
      m_PostInfinity: 2
      m_RotationOrder: 4
    attribute: m_Color.a
    path: Image
    classID: 114
    script: {fileID: 11500000, guid: fe87c0e1cc204ed48ad3b37840f39efc, type: 3}
  - curve:
      serializedVersion: 2
      m_Curve:
      - serializedVersion: 3
        time: 0
        value: 1
        inSlope: Infinity
        outSlope: Infinity
        tangentMode: 103
        weightedMode: 0
        inWeight: 0
        outWeight: 0
      m_PreInfinity: 2
      m_PostInfinity: 2
      m_RotationOrder: 4
    attribute: m_IsActive
    path: Text (TMP)
    classID: 1
    script: {fileID: 0}
  m_EulerEditorCurves: []
  m_HasGenericRootTransform: 0
  m_HasMotionFloatCurves: 0
  m_Events: []
