%YAML 1.1
%TAG !u! tag:unity3d.com,2011:
--- !u!114 &11400000
MonoBehaviour:
  m_ObjectHideFlags: 0
  m_CorrespondingSourceObject: {fileID: 0}
  m_PrefabInstance: {fileID: 0}
  m_PrefabAsset: {fileID: 0}
  m_GameObject: {fileID: 0}
  m_Enabled: 1
  m_EditorHideFlags: 0
  m_Script: {fileID: 11500000, guid: 52a9b5188a7140f6bba52e7be0f1e4c4, type: 3}
  m_Name: 119_CanningFactory
  m_EditorClassIdentifier: 
  _buildingId: 119
  _viewsList:
  - _level: 2
    _view: {fileID: 11422220, guid: 263acd73dd7bef045ada9bf9f48f76da, type: 3}
    _sprite: {fileID: 21300000, guid: 5d410ebc06586c442a23e0260aad0b02, type: 3}
  - _level: 0
    _view: {fileID: 11422220, guid: 263acd73dd7bef045ada9bf9f48f76da, type: 3}
    _sprite: {fileID: 21300000, guid: 5d410ebc06586c442a23e0260aad0b02, type: 3}
  - _level: 1
    _view: {fileID: 11422220, guid: 263acd73dd7bef045ada9bf9f48f76da, type: 3}
    _sprite: {fileID: 21300000, guid: 5d410ebc06586c442a23e0260aad0b02, type: 3}
