%YAML 1.1
%TAG !u! tag:unity3d.com,2011:
--- !u!114 &11400000
MonoBehaviour:
  m_ObjectHideFlags: 0
  m_CorrespondingSourceObject: {fileID: 0}
  m_PrefabInstance: {fileID: 0}
  m_PrefabAsset: {fileID: 0}
  m_GameObject: {fileID: 0}
  m_Enabled: 1
  m_EditorHideFlags: 0
  m_Script: {fileID: 11500000, guid: 52a9b5188a7140f6bba52e7be0f1e4c4, type: 3}
  m_Name: 174_SandoukMansion
  m_EditorClassIdentifier: 
  _buildingId: 174
  _viewsList:
  - _level: 0
    _view: {fileID: 114303710120136782, guid: 6c08fc28ae7f2fb429019e85bff14613, type: 3}
    _sprite: {fileID: 21300000, guid: 66c957b3df26e274a8f10bf563edddf6, type: 3}
  - _level: 1
    _view: {fileID: 114303710120136782, guid: f33e448daed02d4408e6d0d8ebf60f1e, type: 3}
    _sprite: {fileID: 21300000, guid: 66c957b3df26e274a8f10bf563edddf6, type: 3}
  - _level: 2
    _view: {fileID: 114303710120136782, guid: e485bdd1d9e50e243b764147bbd583bb, type: 3}
    _sprite: {fileID: 21300000, guid: a7a0e65799ec3eb40a8ce0b6f6af71ad, type: 3}
  - _level: 3
    _view: {fileID: 114303710120136782, guid: 88efb2021cc747c44aec82773c9a85f1, type: 3}
    _sprite: {fileID: 21300000, guid: c3b342d377a5d474fa6a6cc2a22d6f72, type: 3}
  - _level: 4
    _view: {fileID: 114303710120136782, guid: 94ff072675943bb44ad3f7de145c2528, type: 3}
    _sprite: {fileID: 21300000, guid: bf6c7482245638148803d50618868e5a, type: 3}
  - _level: 5
    _view: {fileID: 114303710120136782, guid: 2ebe8cd6114e79340b66a3cd852ff229, type: 3}
    _sprite: {fileID: 21300000, guid: 89573b0e67039484d9b873efafc78fad, type: 3}
