%YAML 1.1
%TAG !u! tag:unity3d.com,2011:
--- !u!114 &11400000
MonoBehaviour:
  m_ObjectHideFlags: 0
  m_CorrespondingSourceObject: {fileID: 0}
  m_PrefabInstance: {fileID: 0}
  m_PrefabAsset: {fileID: 0}
  m_GameObject: {fileID: 0}
  m_Enabled: 1
  m_EditorHideFlags: 0
  m_Script: {fileID: 11500000, guid: 52a9b5188a7140f6bba52e7be0f1e4c4, type: 3}
  m_Name: 197_PoliceMedium
  m_EditorClassIdentifier: 
  _buildingId: 197
  _viewsList:
  - _level: 0
    _view: {fileID: 3740753993377901189, guid: 58c737d07b4f4e443ad660543edf7274, type: 3}
    _sprite: {fileID: 21300000, guid: f48c9518b1c2d7746b812c202971a5f0, type: 3}
  - _level: 1
    _view: {fileID: 3740753993377901189, guid: 58c737d07b4f4e443ad660543edf7274, type: 3}
    _sprite: {fileID: 21300000, guid: f48c9518b1c2d7746b812c202971a5f0, type: 3}
  - _level: 2
    _view: {fileID: 3740753993377901189, guid: 58c737d07b4f4e443ad660543edf7274, type: 3}
    _sprite: {fileID: 21300000, guid: f48c9518b1c2d7746b812c202971a5f0, type: 3}
