%YAML 1.1
%TAG !u! tag:unity3d.com,2011:
--- !u!114 &11400000
MonoBehaviour:
  m_ObjectHideFlags: 0
  m_CorrespondingSourceObject: {fileID: 0}
  m_PrefabInstance: {fileID: 0}
  m_PrefabAsset: {fileID: 0}
  m_GameObject: {fileID: 0}
  m_Enabled: 1
  m_EditorHideFlags: 0
  m_Script: {fileID: 11500000, guid: 52a9b5188a7140f6bba52e7be0f1e4c4, type: 3}
  m_Name: 31_Road
  m_EditorClassIdentifier: 
  _buildingId: 31
  _viewsList:
  - _level: 0
    _view: {fileID: 11474242, guid: 21be95de412d65542a758e81f951b544, type: 3}
    _sprite: {fileID: 0}
  - _level: 200
    _view: {fileID: 11474242, guid: 21be95de412d65542a758e81f951b544, type: 3}
    _sprite: {fileID: 0}
