%YAML 1.1
%TAG !u! tag:unity3d.com,2011:
--- !u!114 &11400000
MonoBehaviour:
  m_ObjectHideFlags: 0
  m_CorrespondingSourceObject: {fileID: 0}
  m_PrefabInstance: {fileID: 0}
  m_PrefabAsset: {fileID: 0}
  m_GameObject: {fileID: 0}
  m_Enabled: 1
  m_EditorHideFlags: 0
  m_Script: {fileID: 11500000, guid: 52a9b5188a7140f6bba52e7be0f1e4c4, type: 3}
  m_Name: 69_ElementarySchool
  m_EditorClassIdentifier: 
  _buildingId: 69
  _viewsList:
  - _level: 0
    _view: {fileID: -982244055915626315, guid: 6988342ccd7e2b44fabb156d7e1d8c8d, type: 3}
    _sprite: {fileID: 21300000, guid: 0e9833768fb84104c89b163e305a01d7, type: 3}
  - _level: 1
    _view: {fileID: -982244055915626315, guid: 6988342ccd7e2b44fabb156d7e1d8c8d, type: 3}
    _sprite: {fileID: 21300000, guid: 0e9833768fb84104c89b163e305a01d7, type: 3}
  - _level: 2
    _view: {fileID: -982244055915626315, guid: 6988342ccd7e2b44fabb156d7e1d8c8d, type: 3}
    _sprite: {fileID: 21300000, guid: 0e9833768fb84104c89b163e305a01d7, type: 3}
