{
    "name": "NanoReality-Editor",
    "rootNamespace": "",
    "references": [
        "GUID:dcc32b71b579fb646945b501ed40d04d",
        "GUID:ca6b87c24998a8a4cb5faeb6debea793",
        "GUID:10a1338086f79ff4db1ee28f8aa1dead",
        "GUID:6055be8ebefd69e48b49212b09b47b2f",
        "GUID:782c39a29bdf44a569029c0fc1c6d458",
        "GUID:27d8de8b139a43141be24d47fd27fc77",
        "GUID:ff1de141ea1e392499c9e0cefe12554d",
        "GUID:0090e09e5ec5d4f28bf16c767a86a961"
    ],
    "includePlatforms": [
        "Editor"
    ],
    "excludePlatforms": [],
    "allowUnsafeCode": false,
    "overrideReferences": false,
    "precompiledReferences": [],
    "autoReferenced": true,
    "defineConstraints": [],
    "versionDefines": [],
    "noEngineReferences": false
}