%YAML 1.1
%TAG !u! tag:unity3d.com,2011:
--- !u!114 &11400000
MonoBehaviour:
  m_ObjectHideFlags: 0
  m_CorrespondingSourceObject: {fileID: 0}
  m_PrefabInstance: {fileID: 0}
  m_PrefabAsset: {fileID: 0}
  m_GameObject: {fileID: 0}
  m_Enabled: 1
  m_EditorHideFlags: 0
  m_Script: {fileID: 11500000, guid: f187c331bb8c60446a800459ef8ca683, type: 3}
  m_Name: AuctionPurchase
  m_EditorClassIdentifier: 
  _title: Auction purchase
  _descriptions:
  - Our congratulations with a successful deal! Collect your purchase at auction!
  - You have bought a product at auction, use it as soon as possible.
  smallIconName: 
  largeIconName: 
  _repeatInterval:
    seconds: 0
    minutes: 0
    hours: 0
    days: 1
