%YAML 1.1
%TAG !u! tag:unity3d.com,2011:
--- !u!114 &11400000
MonoBehaviour:
  m_ObjectHideFlags: 0
  m_CorrespondingSourceObject: {fileID: 0}
  m_PrefabInstance: {fileID: 0}
  m_PrefabAsset: {fileID: 0}
  m_GameObject: {fileID: 0}
  m_Enabled: 1
  m_EditorHideFlags: 0
  m_Script: {fileID: 11500000, guid: f187c331bb8c60446a800459ef8ca683, type: 3}
  m_Name: BuildingConstructed
  m_EditorClassIdentifier: 
  serializationData:
    SerializedFormat: 2
    SerializedBytes: 
    ReferencedUnityObjects: []
    SerializedBytesString: 
    Prefab: {fileID: 0}
    PrefabModificationsReferencedUnityObjects: []
    PrefabModifications: []
    SerializationNodes: []
  _title: BUILDING_CONSTRUCTED_TITLE
  _descriptions:
  - BUILDING_CONSTRUCTED_DESCRIPTION_1
  - BUILDING_CONSTRUCTED_DESCRIPTION_2
  _smallIconName: 
  _largeIconName: 
  _repeatInterval:
    seconds: 0
    minutes: 0
    hours: 0
    days: 1
  _style: 2
  _color: {r: 0.9339623, g: 0.5332301, b: 0.18943575, a: 0}
