%YAML 1.1
%TAG !u! tag:unity3d.com,2011:
--- !u!687078895 &4343727234628468602
SpriteAtlas:
  m_ObjectHideFlags: 0
  m_CorrespondingSourceObject: {fileID: 0}
  m_PrefabInstance: {fileID: 0}
  m_PrefabAsset: {fileID: 0}
  m_Name: CharacterSprites
  m_EditorData:
    serializedVersion: 2
    textureSettings:
      serializedVersion: 2
      anisoLevel: 1
      compressionQuality: 50
      maxTextureSize: 2048
      textureCompression: 0
      filterMode: 1
      generateMipMaps: 0
      readable: 0
      crunchedCompression: 0
      sRGB: 1
    platformSettings:
    - serializedVersion: 3
      m_BuildTarget: DefaultTexturePlatform
      m_MaxTextureSize: 2048
      m_ResizeAlgorithm: 0
      m_TextureFormat: -1
      m_TextureCompression: 2
      m_CompressionQuality: 50
      m_CrunchedCompression: 0
      m_AllowsAlphaSplitting: 0
      m_Overridden: 0
      m_AndroidETC2FallbackOverride: 0
      m_ForceMaximumCompressionQuality_BC6H_BC7: 0
    - serializedVersion: 3
      m_BuildTarget: Android
      m_MaxTextureSize: 2048
      m_ResizeAlgorithm: 0
      m_TextureFormat: 47
      m_TextureCompression: 1
      m_CompressionQuality: 50
      m_CrunchedCompression: 0
      m_AllowsAlphaSplitting: 0
      m_Overridden: 1
      m_AndroidETC2FallbackOverride: 0
      m_ForceMaximumCompressionQuality_BC6H_BC7: 0
    - serializedVersion: 3
      m_BuildTarget: iPhone
      m_MaxTextureSize: 2048
      m_ResizeAlgorithm: 0
      m_TextureFormat: 33
      m_TextureCompression: 1
      m_CompressionQuality: 50
      m_CrunchedCompression: 0
      m_AllowsAlphaSplitting: 0
      m_Overridden: 1
      m_AndroidETC2FallbackOverride: 0
      m_ForceMaximumCompressionQuality_BC6H_BC7: 0
    - serializedVersion: 3
      m_BuildTarget: iPhone
      m_MaxTextureSize: 2048
      m_ResizeAlgorithm: 0
      m_TextureFormat: 4
      m_TextureCompression: 1
      m_CompressionQuality: 50
      m_CrunchedCompression: 0
      m_AllowsAlphaSplitting: 0
      m_Overridden: 1
      m_AndroidETC2FallbackOverride: 0
      m_ForceMaximumCompressionQuality_BC6H_BC7: 0
    - serializedVersion: 3
      m_BuildTarget: Standalone
      m_MaxTextureSize: 2048
      m_ResizeAlgorithm: 0
      m_TextureFormat: 4
      m_TextureCompression: 1
      m_CompressionQuality: 50
      m_CrunchedCompression: 0
      m_AllowsAlphaSplitting: 0
      m_Overridden: 1
      m_AndroidETC2FallbackOverride: 0
      m_ForceMaximumCompressionQuality_BC6H_BC7: 0
    packingSettings:
      serializedVersion: 2
      padding: 4
      blockOffset: 1
      allowAlphaSplitting: 0
      enableRotation: 1
      enableTightPacking: 0
      enableAlphaDilation: 0
    secondaryTextureSettings: {}
    variantMultiplier: 1
    packables:
    - {fileID: 102900000, guid: 028d550776e34424b917da59c4fc416c, type: 3}
    bindAsDefault: 1
    isAtlasV2: 0
    cachedData: {fileID: 0}
  m_MasterAtlas: {fileID: 0}
  m_PackedSprites:
  - {fileID: 21300000, guid: 6c984b4403e7c435890735f97e330eff, type: 3}
  - {fileID: 21300000, guid: 90daff451b57f434e9571027dd9a7da9, type: 3}
  - {fileID: 21300000, guid: 1c418ad6212c14bb9a623e05ba32c5e3, type: 3}
  - {fileID: 21300000, guid: 7d212a3797e8b4a6dbcc7c41de6ccaa2, type: 3}
  - {fileID: 21300000, guid: 7bc1dd475aea7409ba0b5d82a21abe8d, type: 3}
  - {fileID: 21300000, guid: 370180e7ed6e74cc192d8c7a283a0290, type: 3}
  - {fileID: 21300000, guid: b48b1008eaf2c47b99eaa530ad97cc6a, type: 3}
  - {fileID: 21300000, guid: 96a8baa8af94c45d583e0e37123c734c, type: 3}
  - {fileID: 21300000, guid: e2bb05098e83848d7a7d6d7767569f57, type: 3}
  - {fileID: 21300000, guid: 9a9868c94bded4fe4bdca11a589a51a8, type: 3}
  - {fileID: 21300000, guid: d4c1423b40648403e8d3760079549ab5, type: 3}
  - {fileID: 21300000, guid: 80da645c6b75647249a7e47339883a40, type: 3}
  m_PackedSpriteNamesToIndex:
  - farmer_attention
  - farmer_cool
  - girl_idle
  - girl_look
  - girl_cool
  - farmer_idle
  - farmer_look
  - engineer_cool
  - engineer_look
  - girl_attention
  - engineer_attention
  - engineer_idle
  m_RenderDataMap: {}
  m_Tag: CharacterSprites
  m_IsVariant: 0
