%YAML 1.1
%TAG !u! tag:unity3d.com,2011:
--- !u!21 &2100000
Material:
  serializedVersion: 6
  m_ObjectHideFlags: 0
  m_PrefabParentObject: {fileID: 0}
  m_PrefabInternal: {fileID: 0}
  m_Name: XpTrail
  m_Shader: {fileID: 4800000, guid: 9232474ccb8e2cb4faa57c2da9fd1be6, type: 3}
  m_ShaderKeywords: 
  m_LightmapFlags: 5
  m_CustomRenderQueue: 3000
  stringTagMap: {}
  m_SavedProperties:
    serializedVersion: 2
    m_TexEnvs:
    - first:
        name: _MainTex
      second:
        m_Texture: {fileID: 2800000, guid: e0afce421913146a2b1594aa979c4924, type: 3}
        m_Scale: {x: 1, y: 1}
        m_Offset: {x: 0, y: 0}
    m_Floats:
    - first:
        name: _ColorStrength
      second: 1
    - first:
        name: _CoreStrength
      second: 0.95
    - first:
        name: _CutOutLightCore
      second: 0
    - first:
        name: _InvFade
      second: 1
    - first:
        name: _TintStrength
      second: -0.17
    m_Colors:
    - first:
        name: _Color
      second: {r: 0.18382353, g: 0.42586204, b: 1, a: 0.5019608}
    - first:
        name: _CoreColor
      second: {r: 1, g: 0.6000001, b: 0, a: 1}
    - first:
        name: _TintColor
      second: {r: 0.5019608, g: 0.5019608, b: 0.5019608, a: 1}
