%YAML 1.1
%TAG !u! tag:unity3d.com,2011:
--- !u!1 &1534830969250612538
GameObject:
  m_ObjectHideFlags: 0
  m_CorrespondingSourceObject: {fileID: 0}
  m_PrefabInstance: {fileID: 0}
  m_PrefabAsset: {fileID: 0}
  serializedVersion: 6
  m_Component:
  - component: {fileID: 1534830969250612543}
  - component: {fileID: 1534830969250612542}
  - component: {fileID: 1534830969250612541}
  - component: {fileID: 1534830969250612540}
  - component: {fileID: 1534830969250612539}
  m_Layer: 5
  m_Name: TutorialCanvas
  m_TagString: Untagged
  m_Icon: {fileID: 0}
  m_NavMeshLayer: 0
  m_StaticEditorFlags: 0
  m_IsActive: 1
--- !u!224 &1534830969250612543
RectTransform:
  m_ObjectHideFlags: 0
  m_CorrespondingSourceObject: {fileID: 0}
  m_PrefabInstance: {fileID: 0}
  m_PrefabAsset: {fileID: 0}
  m_GameObject: {fileID: 1534830969250612538}
  m_LocalRotation: {x: 0, y: 0, z: 0, w: 1}
  m_LocalPosition: {x: 0, y: 0, z: 0}
  m_LocalScale: {x: 0, y: 0, z: 0}
  m_Children:
  - {fileID: 1534830967770560599}
  - {fileID: 1534830967260076643}
  - {fileID: 1534830969035088679}
  m_Father: {fileID: 0}
  m_RootOrder: 0
  m_LocalEulerAnglesHint: {x: 0, y: 0, z: 0}
  m_AnchorMin: {x: 0, y: 0}
  m_AnchorMax: {x: 0, y: 0}
  m_AnchoredPosition: {x: 0, y: 0}
  m_SizeDelta: {x: 0, y: 0}
  m_Pivot: {x: 0, y: 0}
--- !u!223 &1534830969250612542
Canvas:
  m_ObjectHideFlags: 0
  m_CorrespondingSourceObject: {fileID: 0}
  m_PrefabInstance: {fileID: 0}
  m_PrefabAsset: {fileID: 0}
  m_GameObject: {fileID: 1534830969250612538}
  m_Enabled: 1
  serializedVersion: 3
  m_RenderMode: 0
  m_Camera: {fileID: 0}
  m_PlaneDistance: 100
  m_PixelPerfect: 0
  m_ReceivesEvents: 1
  m_OverrideSorting: 0
  m_OverridePixelPerfect: 0
  m_SortingBucketNormalizedSize: 0
  m_AdditionalShaderChannelsFlag: 27
  m_SortingLayerID: 0
  m_SortingOrder: 135
  m_TargetDisplay: 0
--- !u!114 &1534830969250612541
MonoBehaviour:
  m_ObjectHideFlags: 0
  m_CorrespondingSourceObject: {fileID: 0}
  m_PrefabInstance: {fileID: 0}
  m_PrefabAsset: {fileID: 0}
  m_GameObject: {fileID: 1534830969250612538}
  m_Enabled: 1
  m_EditorHideFlags: 0
  m_Script: {fileID: 11500000, guid: 0cd44c1031e13a943bb63640046fad76, type: 3}
  m_Name: 
  m_EditorClassIdentifier: 
  m_UiScaleMode: 1
  m_ReferencePixelsPerUnit: 100
  m_ScaleFactor: 1
  m_ReferenceResolution: {x: 2048, y: 1125}
  m_ScreenMatchMode: 1
  m_MatchWidthOrHeight: 0
  m_PhysicalUnit: 3
  m_FallbackScreenDPI: 96
  m_DefaultSpriteDPI: 96
  m_DynamicPixelsPerUnit: 1
--- !u!114 &1534830969250612540
MonoBehaviour:
  m_ObjectHideFlags: 0
  m_CorrespondingSourceObject: {fileID: 0}
  m_PrefabInstance: {fileID: 0}
  m_PrefabAsset: {fileID: 0}
  m_GameObject: {fileID: 1534830969250612538}
  m_Enabled: 1
  m_EditorHideFlags: 0
  m_Script: {fileID: 11500000, guid: dc42784cf147c0c48a680349fa168899, type: 3}
  m_Name: 
  m_EditorClassIdentifier: 
  m_IgnoreReversedGraphics: 1
  m_BlockingObjects: 0
  m_BlockingMask:
    serializedVersion: 2
    m_Bits: 1056567
--- !u!114 &1534830969250612539
MonoBehaviour:
  m_ObjectHideFlags: 0
  m_CorrespondingSourceObject: {fileID: 0}
  m_PrefabInstance: {fileID: 0}
  m_PrefabAsset: {fileID: 0}
  m_GameObject: {fileID: 1534830969250612538}
  m_Enabled: 1
  m_EditorHideFlags: 0
  m_Script: {fileID: 11500000, guid: 29eece9ce2df1da4d927eca637d0cb26, type: 3}
  m_Name: 
  m_EditorClassIdentifier: 
  _uiPanel: {fileID: 1534830967796038527}
  _worldSpacePanel: {fileID: 1534830967233345717}
  _mapObjectPanel: {fileID: 1534830969014673523}
--- !u!1 &2779222755752149149
GameObject:
  m_ObjectHideFlags: 0
  m_CorrespondingSourceObject: {fileID: 0}
  m_PrefabInstance: {fileID: 0}
  m_PrefabAsset: {fileID: 0}
  serializedVersion: 6
  m_Component:
  - component: {fileID: 8071976366452144071}
  - component: {fileID: 6755832782213818322}
  - component: {fileID: 4812368727803343885}
  m_Layer: 5
  m_Name: Text (TMP)
  m_TagString: Untagged
  m_Icon: {fileID: 0}
  m_NavMeshLayer: 0
  m_StaticEditorFlags: 0
  m_IsActive: 0
--- !u!224 &8071976366452144071
RectTransform:
  m_ObjectHideFlags: 0
  m_CorrespondingSourceObject: {fileID: 0}
  m_PrefabInstance: {fileID: 0}
  m_PrefabAsset: {fileID: 0}
  m_GameObject: {fileID: 2779222755752149149}
  m_LocalRotation: {x: -0, y: -0, z: -0, w: 1}
  m_LocalPosition: {x: 0, y: 0, z: 0}
  m_LocalScale: {x: 1, y: 1, z: 1}
  m_Children: []
  m_Father: {fileID: 1608424350410892201}
  m_RootOrder: 2
  m_LocalEulerAnglesHint: {x: 0, y: 0, z: 0}
  m_AnchorMin: {x: 0.5, y: 0.5}
  m_AnchorMax: {x: 0.5, y: 0.5}
  m_AnchoredPosition: {x: 252.00043, y: -77.00021}
  m_SizeDelta: {x: 321.1, y: 50}
  m_Pivot: {x: 0.5, y: 0.5}
--- !u!222 &6755832782213818322
CanvasRenderer:
  m_ObjectHideFlags: 0
  m_CorrespondingSourceObject: {fileID: 0}
  m_PrefabInstance: {fileID: 0}
  m_PrefabAsset: {fileID: 0}
  m_GameObject: {fileID: 2779222755752149149}
  m_CullTransparentMesh: 0
--- !u!114 &4812368727803343885
MonoBehaviour:
  m_ObjectHideFlags: 0
  m_CorrespondingSourceObject: {fileID: 0}
  m_PrefabInstance: {fileID: 0}
  m_PrefabAsset: {fileID: 0}
  m_GameObject: {fileID: 2779222755752149149}
  m_Enabled: 1
  m_EditorHideFlags: 0
  m_Script: {fileID: 11500000, guid: f4688fdb7df04437aeb418b961361dc5, type: 3}
  m_Name: 
  m_EditorClassIdentifier: 
  m_Material: {fileID: 0}
  m_Color: {r: 1, g: 1, b: 1, a: 1}
  m_RaycastTarget: 0
  m_RaycastPadding: {x: 0, y: 0, z: 0, w: 0}
  m_Maskable: 1
  m_OnCullStateChanged:
    m_PersistentCalls:
      m_Calls: []
  m_text: Long Tap
  m_isRightToLeft: 0
  m_fontAsset: {fileID: 11400000, guid: fa0219c6dd29dda40afb7ebe02b4acf8, type: 2}
  m_sharedMaterial: {fileID: 21329758558856470, guid: fa0219c6dd29dda40afb7ebe02b4acf8,
    type: 2}
  m_fontSharedMaterials: []
  m_fontMaterial: {fileID: 0}
  m_fontMaterials: []
  m_fontColor32:
    serializedVersion: 2
    rgba: 4294967295
  m_fontColor: {r: 1, g: 1, b: 1, a: 1}
  m_enableVertexGradient: 0
  m_colorMode: 3
  m_fontColorGradient:
    topLeft: {r: 1, g: 1, b: 1, a: 1}
    topRight: {r: 1, g: 1, b: 1, a: 1}
    bottomLeft: {r: 1, g: 1, b: 1, a: 1}
    bottomRight: {r: 1, g: 1, b: 1, a: 1}
  m_fontColorGradientPreset: {fileID: 0}
  m_spriteAsset: {fileID: 0}
  m_tintAllSprites: 0
  m_StyleSheet: {fileID: 0}
  m_TextStyleHashCode: 0
  m_overrideHtmlColors: 0
  m_faceColor:
    serializedVersion: 2
    rgba: 4294967295
  m_fontSize: 36
  m_fontSizeBase: 36
  m_fontWeight: 400
  m_enableAutoSizing: 0
  m_fontSizeMin: 18
  m_fontSizeMax: 72
  m_fontStyle: 0
  m_HorizontalAlignment: 1
  m_VerticalAlignment: 256
  m_textAlignment: 514
  m_characterSpacing: 0
  m_wordSpacing: 0
  m_lineSpacing: 0
  m_lineSpacingMax: 0
  m_paragraphSpacing: 0
  m_charWidthMaxAdj: 0
  m_enableWordWrapping: 1
  m_wordWrappingRatios: 0.4
  m_overflowMode: 0
  m_linkedTextComponent: {fileID: 0}
  parentLinkedComponent: {fileID: 0}
  m_enableKerning: 1
  m_enableExtraPadding: 0
  checkPaddingRequired: 0
  m_isRichText: 1
  m_parseCtrlCharacters: 1
  m_isOrthographic: 1
  m_isCullingEnabled: 0
  m_horizontalMapping: 0
  m_verticalMapping: 0
  m_uvLineOffset: 0
  m_geometrySortingOrder: 0
  m_IsTextObjectScaleStatic: 0
  m_VertexBufferAutoSizeReduction: 1
  m_useMaxVisibleDescender: 1
  m_pageToDisplay: 1
  m_margin: {x: 0, y: 0, z: 0, w: 0}
  m_isUsingLegacyAnimationComponent: 0
  m_isVolumetricText: 0
  m_hasFontAssetChanged: 0
  m_baseMaterial: {fileID: 0}
  m_maskOffset: {x: 0, y: 0, z: 0, w: 0}
--- !u!1 &6998367319580565916
GameObject:
  m_ObjectHideFlags: 0
  m_CorrespondingSourceObject: {fileID: 0}
  m_PrefabInstance: {fileID: 0}
  m_PrefabAsset: {fileID: 0}
  serializedVersion: 6
  m_Component:
  - component: {fileID: 7574126241835015541}
  - component: {fileID: 1765978756132099935}
  - component: {fileID: 8407775030940659917}
  m_Layer: 5
  m_Name: Text (TMP)
  m_TagString: Untagged
  m_Icon: {fileID: 0}
  m_NavMeshLayer: 0
  m_StaticEditorFlags: 0
  m_IsActive: 0
--- !u!224 &7574126241835015541
RectTransform:
  m_ObjectHideFlags: 0
  m_CorrespondingSourceObject: {fileID: 0}
  m_PrefabInstance: {fileID: 0}
  m_PrefabAsset: {fileID: 0}
  m_GameObject: {fileID: 6998367319580565916}
  m_LocalRotation: {x: -0, y: -0, z: -0, w: 1}
  m_LocalPosition: {x: 0, y: 0, z: 0}
  m_LocalScale: {x: 1, y: 1, z: 1}
  m_Children: []
  m_Father: {fileID: 1608858735803550679}
  m_RootOrder: 2
  m_LocalEulerAnglesHint: {x: 0, y: 0, z: 0}
  m_AnchorMin: {x: 0.5, y: 0.5}
  m_AnchorMax: {x: 0.5, y: 0.5}
  m_AnchoredPosition: {x: 251.99976, y: -77.00003}
  m_SizeDelta: {x: 321.1, y: 50}
  m_Pivot: {x: 0.5, y: 0.5}
--- !u!222 &1765978756132099935
CanvasRenderer:
  m_ObjectHideFlags: 0
  m_CorrespondingSourceObject: {fileID: 0}
  m_PrefabInstance: {fileID: 0}
  m_PrefabAsset: {fileID: 0}
  m_GameObject: {fileID: 6998367319580565916}
  m_CullTransparentMesh: 0
--- !u!114 &8407775030940659917
MonoBehaviour:
  m_ObjectHideFlags: 0
  m_CorrespondingSourceObject: {fileID: 0}
  m_PrefabInstance: {fileID: 0}
  m_PrefabAsset: {fileID: 0}
  m_GameObject: {fileID: 6998367319580565916}
  m_Enabled: 1
  m_EditorHideFlags: 0
  m_Script: {fileID: 11500000, guid: f4688fdb7df04437aeb418b961361dc5, type: 3}
  m_Name: 
  m_EditorClassIdentifier: 
  m_Material: {fileID: 0}
  m_Color: {r: 1, g: 1, b: 1, a: 1}
  m_RaycastTarget: 0
  m_RaycastPadding: {x: 0, y: 0, z: 0, w: 0}
  m_Maskable: 1
  m_OnCullStateChanged:
    m_PersistentCalls:
      m_Calls: []
  m_text: Long Tap
  m_isRightToLeft: 0
  m_fontAsset: {fileID: 11400000, guid: fa0219c6dd29dda40afb7ebe02b4acf8, type: 2}
  m_sharedMaterial: {fileID: 21329758558856470, guid: fa0219c6dd29dda40afb7ebe02b4acf8,
    type: 2}
  m_fontSharedMaterials: []
  m_fontMaterial: {fileID: 0}
  m_fontMaterials: []
  m_fontColor32:
    serializedVersion: 2
    rgba: 4294967295
  m_fontColor: {r: 1, g: 1, b: 1, a: 1}
  m_enableVertexGradient: 0
  m_colorMode: 3
  m_fontColorGradient:
    topLeft: {r: 1, g: 1, b: 1, a: 1}
    topRight: {r: 1, g: 1, b: 1, a: 1}
    bottomLeft: {r: 1, g: 1, b: 1, a: 1}
    bottomRight: {r: 1, g: 1, b: 1, a: 1}
  m_fontColorGradientPreset: {fileID: 0}
  m_spriteAsset: {fileID: 0}
  m_tintAllSprites: 0
  m_StyleSheet: {fileID: 0}
  m_TextStyleHashCode: 0
  m_overrideHtmlColors: 0
  m_faceColor:
    serializedVersion: 2
    rgba: 4294967295
  m_fontSize: 36
  m_fontSizeBase: 36
  m_fontWeight: 400
  m_enableAutoSizing: 0
  m_fontSizeMin: 18
  m_fontSizeMax: 72
  m_fontStyle: 0
  m_HorizontalAlignment: 1
  m_VerticalAlignment: 256
  m_textAlignment: 514
  m_characterSpacing: 0
  m_wordSpacing: 0
  m_lineSpacing: 0
  m_lineSpacingMax: 0
  m_paragraphSpacing: 0
  m_charWidthMaxAdj: 0
  m_enableWordWrapping: 1
  m_wordWrappingRatios: 0.4
  m_overflowMode: 0
  m_linkedTextComponent: {fileID: 0}
  parentLinkedComponent: {fileID: 0}
  m_enableKerning: 1
  m_enableExtraPadding: 0
  checkPaddingRequired: 0
  m_isRichText: 1
  m_parseCtrlCharacters: 1
  m_isOrthographic: 1
  m_isCullingEnabled: 0
  m_horizontalMapping: 0
  m_verticalMapping: 0
  m_uvLineOffset: 0
  m_geometrySortingOrder: 0
  m_IsTextObjectScaleStatic: 0
  m_VertexBufferAutoSizeReduction: 1
  m_useMaxVisibleDescender: 1
  m_pageToDisplay: 1
  m_margin: {x: 0, y: 0, z: 0, w: 0}
  m_isUsingLegacyAnimationComponent: 0
  m_isVolumetricText: 0
  m_hasFontAssetChanged: 0
  m_baseMaterial: {fileID: 0}
  m_maskOffset: {x: 0, y: 0, z: 0, w: 0}
--- !u!1001 &1534830967239787867
PrefabInstance:
  m_ObjectHideFlags: 0
  serializedVersion: 2
  m_Modification:
    m_TransformParent: {fileID: 1534830969250612543}
    m_Modifications:
    - target: {fileID: 180296, guid: b636b0f6ca845594185b8e741e860ffd, type: 3}
      propertyPath: m_Name
      value: TutorialLookAtControllerWorldSpace
      objectReference: {fileID: 0}
    - target: {fileID: 180296, guid: b636b0f6ca845594185b8e741e860ffd, type: 3}
      propertyPath: m_IsActive
      value: 0
      objectReference: {fileID: 0}
    - target: {fileID: 22454072, guid: b636b0f6ca845594185b8e741e860ffd, type: 3}
      propertyPath: m_Pivot.x
      value: 0.5
      objectReference: {fileID: 0}
    - target: {fileID: 22454072, guid: b636b0f6ca845594185b8e741e860ffd, type: 3}
      propertyPath: m_Pivot.y
      value: 0.5
      objectReference: {fileID: 0}
    - target: {fileID: 22454072, guid: b636b0f6ca845594185b8e741e860ffd, type: 3}
      propertyPath: m_RootOrder
      value: 1
      objectReference: {fileID: 0}
    - target: {fileID: 22454072, guid: b636b0f6ca845594185b8e741e860ffd, type: 3}
      propertyPath: m_AnchorMax.x
      value: 0.5
      objectReference: {fileID: 0}
    - target: {fileID: 22454072, guid: b636b0f6ca845594185b8e741e860ffd, type: 3}
      propertyPath: m_AnchorMax.y
      value: 0.5
      objectReference: {fileID: 0}
    - target: {fileID: 22454072, guid: b636b0f6ca845594185b8e741e860ffd, type: 3}
      propertyPath: m_AnchorMin.x
      value: 0.5
      objectReference: {fileID: 0}
    - target: {fileID: 22454072, guid: b636b0f6ca845594185b8e741e860ffd, type: 3}
      propertyPath: m_AnchorMin.y
      value: 0.5
      objectReference: {fileID: 0}
    - target: {fileID: 22454072, guid: b636b0f6ca845594185b8e741e860ffd, type: 3}
      propertyPath: m_SizeDelta.x
      value: 200
      objectReference: {fileID: 0}
    - target: {fileID: 22454072, guid: b636b0f6ca845594185b8e741e860ffd, type: 3}
      propertyPath: m_SizeDelta.y
      value: 150
      objectReference: {fileID: 0}
    - target: {fileID: 22454072, guid: b636b0f6ca845594185b8e741e860ffd, type: 3}
      propertyPath: m_LocalPosition.x
      value: 0
      objectReference: {fileID: 0}
    - target: {fileID: 22454072, guid: b636b0f6ca845594185b8e741e860ffd, type: 3}
      propertyPath: m_LocalPosition.y
      value: 0
      objectReference: {fileID: 0}
    - target: {fileID: 22454072, guid: b636b0f6ca845594185b8e741e860ffd, type: 3}
      propertyPath: m_LocalPosition.z
      value: 0
      objectReference: {fileID: 0}
    - target: {fileID: 22454072, guid: b636b0f6ca845594185b8e741e860ffd, type: 3}
      propertyPath: m_LocalRotation.w
      value: 1
      objectReference: {fileID: 0}
    - target: {fileID: 22454072, guid: b636b0f6ca845594185b8e741e860ffd, type: 3}
      propertyPath: m_LocalRotation.x
      value: -0
      objectReference: {fileID: 0}
    - target: {fileID: 22454072, guid: b636b0f6ca845594185b8e741e860ffd, type: 3}
      propertyPath: m_LocalRotation.y
      value: -0
      objectReference: {fileID: 0}
    - target: {fileID: 22454072, guid: b636b0f6ca845594185b8e741e860ffd, type: 3}
      propertyPath: m_LocalRotation.z
      value: -0
      objectReference: {fileID: 0}
    - target: {fileID: 22454072, guid: b636b0f6ca845594185b8e741e860ffd, type: 3}
      propertyPath: m_AnchoredPosition.x
      value: 0
      objectReference: {fileID: 0}
    - target: {fileID: 22454072, guid: b636b0f6ca845594185b8e741e860ffd, type: 3}
      propertyPath: m_AnchoredPosition.y
      value: 0
      objectReference: {fileID: 0}
    - target: {fileID: 22454072, guid: b636b0f6ca845594185b8e741e860ffd, type: 3}
      propertyPath: m_LocalEulerAnglesHint.x
      value: 0
      objectReference: {fileID: 0}
    - target: {fileID: 22454072, guid: b636b0f6ca845594185b8e741e860ffd, type: 3}
      propertyPath: m_LocalEulerAnglesHint.y
      value: 0
      objectReference: {fileID: 0}
    - target: {fileID: 22454072, guid: b636b0f6ca845594185b8e741e860ffd, type: 3}
      propertyPath: m_LocalEulerAnglesHint.z
      value: 0
      objectReference: {fileID: 0}
    - target: {fileID: 114280584251689486, guid: b636b0f6ca845594185b8e741e860ffd,
        type: 3}
      propertyPath: _helpText
      value: 
      objectReference: {fileID: 8407775030940659917}
    m_RemovedComponents: []
  m_SourcePrefab: {fileID: 100100000, guid: b636b0f6ca845594185b8e741e860ffd, type: 3}
--- !u!224 &1534830967260076643 stripped
RectTransform:
  m_CorrespondingSourceObject: {fileID: 22454072, guid: b636b0f6ca845594185b8e741e860ffd,
    type: 3}
  m_PrefabInstance: {fileID: 1534830967239787867}
  m_PrefabAsset: {fileID: 0}
--- !u!114 &1534830967233345717 stripped
MonoBehaviour:
  m_CorrespondingSourceObject: {fileID: 11451886, guid: b636b0f6ca845594185b8e741e860ffd,
    type: 3}
  m_PrefabInstance: {fileID: 1534830967239787867}
  m_PrefabAsset: {fileID: 0}
  m_GameObject: {fileID: 0}
  m_Enabled: 1
  m_EditorHideFlags: 0
  m_Script: {fileID: 11500000, guid: 7b04519c90eb2d24d9a1ea401bcd4159, type: 3}
  m_Name: 
  m_EditorClassIdentifier: 
--- !u!224 &1608858735803550679 stripped
RectTransform:
  m_CorrespondingSourceObject: {fileID: 224899455609081484, guid: b636b0f6ca845594185b8e741e860ffd,
    type: 3}
  m_PrefabInstance: {fileID: 1534830967239787867}
  m_PrefabAsset: {fileID: 0}
--- !u!1001 &1534830967790657167
PrefabInstance:
  m_ObjectHideFlags: 0
  serializedVersion: 2
  m_Modification:
    m_TransformParent: {fileID: 1534830969250612543}
    m_Modifications:
    - target: {fileID: 167958, guid: 7f58c7e7abdfe2f49974a002f0447fbe, type: 3}
      propertyPath: m_Name
      value: TutorialLookAtControllerOverlay
      objectReference: {fileID: 0}
    - target: {fileID: 167958, guid: 7f58c7e7abdfe2f49974a002f0447fbe, type: 3}
      propertyPath: m_IsActive
      value: 0
      objectReference: {fileID: 0}
    - target: {fileID: 22406872, guid: 7f58c7e7abdfe2f49974a002f0447fbe, type: 3}
      propertyPath: m_Pivot.x
      value: 0.5
      objectReference: {fileID: 0}
    - target: {fileID: 22406872, guid: 7f58c7e7abdfe2f49974a002f0447fbe, type: 3}
      propertyPath: m_Pivot.y
      value: 0.5
      objectReference: {fileID: 0}
    - target: {fileID: 22406872, guid: 7f58c7e7abdfe2f49974a002f0447fbe, type: 3}
      propertyPath: m_RootOrder
      value: 0
      objectReference: {fileID: 0}
    - target: {fileID: 22406872, guid: 7f58c7e7abdfe2f49974a002f0447fbe, type: 3}
      propertyPath: m_AnchorMax.x
      value: 1
      objectReference: {fileID: 0}
    - target: {fileID: 22406872, guid: 7f58c7e7abdfe2f49974a002f0447fbe, type: 3}
      propertyPath: m_AnchorMax.y
      value: 1
      objectReference: {fileID: 0}
    - target: {fileID: 22406872, guid: 7f58c7e7abdfe2f49974a002f0447fbe, type: 3}
      propertyPath: m_AnchorMin.x
      value: 0
      objectReference: {fileID: 0}
    - target: {fileID: 22406872, guid: 7f58c7e7abdfe2f49974a002f0447fbe, type: 3}
      propertyPath: m_AnchorMin.y
      value: 0
      objectReference: {fileID: 0}
    - target: {fileID: 22406872, guid: 7f58c7e7abdfe2f49974a002f0447fbe, type: 3}
      propertyPath: m_SizeDelta.x
      value: -1848
      objectReference: {fileID: 0}
    - target: {fileID: 22406872, guid: 7f58c7e7abdfe2f49974a002f0447fbe, type: 3}
      propertyPath: m_SizeDelta.y
      value: -1080
      objectReference: {fileID: 0}
    - target: {fileID: 22406872, guid: 7f58c7e7abdfe2f49974a002f0447fbe, type: 3}
      propertyPath: m_LocalPosition.x
      value: 0
      objectReference: {fileID: 0}
    - target: {fileID: 22406872, guid: 7f58c7e7abdfe2f49974a002f0447fbe, type: 3}
      propertyPath: m_LocalPosition.y
      value: 0
      objectReference: {fileID: 0}
    - target: {fileID: 22406872, guid: 7f58c7e7abdfe2f49974a002f0447fbe, type: 3}
      propertyPath: m_LocalPosition.z
      value: 0
      objectReference: {fileID: 0}
    - target: {fileID: 22406872, guid: 7f58c7e7abdfe2f49974a002f0447fbe, type: 3}
      propertyPath: m_LocalRotation.w
      value: 1
      objectReference: {fileID: 0}
    - target: {fileID: 22406872, guid: 7f58c7e7abdfe2f49974a002f0447fbe, type: 3}
      propertyPath: m_LocalRotation.x
      value: -0
      objectReference: {fileID: 0}
    - target: {fileID: 22406872, guid: 7f58c7e7abdfe2f49974a002f0447fbe, type: 3}
      propertyPath: m_LocalRotation.y
      value: -0
      objectReference: {fileID: 0}
    - target: {fileID: 22406872, guid: 7f58c7e7abdfe2f49974a002f0447fbe, type: 3}
      propertyPath: m_LocalRotation.z
      value: -0
      objectReference: {fileID: 0}
    - target: {fileID: 22406872, guid: 7f58c7e7abdfe2f49974a002f0447fbe, type: 3}
      propertyPath: m_AnchoredPosition.x
      value: 0
      objectReference: {fileID: 0}
    - target: {fileID: 22406872, guid: 7f58c7e7abdfe2f49974a002f0447fbe, type: 3}
      propertyPath: m_AnchoredPosition.y
      value: 0
      objectReference: {fileID: 0}
    - target: {fileID: 22406872, guid: 7f58c7e7abdfe2f49974a002f0447fbe, type: 3}
      propertyPath: m_LocalEulerAnglesHint.x
      value: 0
      objectReference: {fileID: 0}
    - target: {fileID: 22406872, guid: 7f58c7e7abdfe2f49974a002f0447fbe, type: 3}
      propertyPath: m_LocalEulerAnglesHint.y
      value: 0
      objectReference: {fileID: 0}
    - target: {fileID: 22406872, guid: 7f58c7e7abdfe2f49974a002f0447fbe, type: 3}
      propertyPath: m_LocalEulerAnglesHint.z
      value: 0
      objectReference: {fileID: 0}
    - target: {fileID: 114546370229585478, guid: 7f58c7e7abdfe2f49974a002f0447fbe,
        type: 3}
      propertyPath: _helpText
      value: 
      objectReference: {fileID: 4812368727803343885}
    m_RemovedComponents: []
  m_SourcePrefab: {fileID: 100100000, guid: 7f58c7e7abdfe2f49974a002f0447fbe, type: 3}
--- !u!224 &1534830967770560599 stripped
RectTransform:
  m_CorrespondingSourceObject: {fileID: 22406872, guid: 7f58c7e7abdfe2f49974a002f0447fbe,
    type: 3}
  m_PrefabInstance: {fileID: 1534830967790657167}
  m_PrefabAsset: {fileID: 0}
--- !u!114 &1534830967796038527 stripped
MonoBehaviour:
  m_CorrespondingSourceObject: {fileID: 11412976, guid: 7f58c7e7abdfe2f49974a002f0447fbe,
    type: 3}
  m_PrefabInstance: {fileID: 1534830967790657167}
  m_PrefabAsset: {fileID: 0}
  m_GameObject: {fileID: 0}
  m_Enabled: 1
  m_EditorHideFlags: 0
  m_Script: {fileID: 11500000, guid: 02817d9ee254e0945878a058475b79f3, type: 3}
  m_Name: 
  m_EditorClassIdentifier: 
--- !u!224 &1608424350410892201 stripped
RectTransform:
  m_CorrespondingSourceObject: {fileID: 224781747290258726, guid: 7f58c7e7abdfe2f49974a002f0447fbe,
    type: 3}
  m_PrefabInstance: {fileID: 1534830967790657167}
  m_PrefabAsset: {fileID: 0}
--- !u!1001 &1534830969021638455
PrefabInstance:
  m_ObjectHideFlags: 0
  serializedVersion: 2
  m_Modification:
    m_TransformParent: {fileID: 1534830969250612543}
    m_Modifications:
    - target: {fileID: 112514, guid: da4fe8893aba4af448c9b3bd21fe20e1, type: 3}
      propertyPath: m_Name
      value: TutorialLookAtMapObjectController
      objectReference: {fileID: 0}
    - target: {fileID: 112514, guid: da4fe8893aba4af448c9b3bd21fe20e1, type: 3}
      propertyPath: m_IsActive
      value: 0
      objectReference: {fileID: 0}
    - target: {fileID: 22496272, guid: da4fe8893aba4af448c9b3bd21fe20e1, type: 3}
      propertyPath: m_Pivot.x
      value: 0.5
      objectReference: {fileID: 0}
    - target: {fileID: 22496272, guid: da4fe8893aba4af448c9b3bd21fe20e1, type: 3}
      propertyPath: m_Pivot.y
      value: 0.5
      objectReference: {fileID: 0}
    - target: {fileID: 22496272, guid: da4fe8893aba4af448c9b3bd21fe20e1, type: 3}
      propertyPath: m_RootOrder
      value: 2
      objectReference: {fileID: 0}
    - target: {fileID: 22496272, guid: da4fe8893aba4af448c9b3bd21fe20e1, type: 3}
      propertyPath: m_AnchorMax.x
      value: 0.5
      objectReference: {fileID: 0}
    - target: {fileID: 22496272, guid: da4fe8893aba4af448c9b3bd21fe20e1, type: 3}
      propertyPath: m_AnchorMax.y
      value: 0.5
      objectReference: {fileID: 0}
    - target: {fileID: 22496272, guid: da4fe8893aba4af448c9b3bd21fe20e1, type: 3}
      propertyPath: m_AnchorMin.x
      value: 0.5
      objectReference: {fileID: 0}
    - target: {fileID: 22496272, guid: da4fe8893aba4af448c9b3bd21fe20e1, type: 3}
      propertyPath: m_AnchorMin.y
      value: 0.5
      objectReference: {fileID: 0}
    - target: {fileID: 22496272, guid: da4fe8893aba4af448c9b3bd21fe20e1, type: 3}
      propertyPath: m_SizeDelta.x
      value: 400
      objectReference: {fileID: 0}
    - target: {fileID: 22496272, guid: da4fe8893aba4af448c9b3bd21fe20e1, type: 3}
      propertyPath: m_SizeDelta.y
      value: 300
      objectReference: {fileID: 0}
    - target: {fileID: 22496272, guid: da4fe8893aba4af448c9b3bd21fe20e1, type: 3}
      propertyPath: m_LocalPosition.x
      value: 0
      objectReference: {fileID: 0}
    - target: {fileID: 22496272, guid: da4fe8893aba4af448c9b3bd21fe20e1, type: 3}
      propertyPath: m_LocalPosition.y
      value: 0
      objectReference: {fileID: 0}
    - target: {fileID: 22496272, guid: da4fe8893aba4af448c9b3bd21fe20e1, type: 3}
      propertyPath: m_LocalPosition.z
      value: 0
      objectReference: {fileID: 0}
    - target: {fileID: 22496272, guid: da4fe8893aba4af448c9b3bd21fe20e1, type: 3}
      propertyPath: m_LocalRotation.w
      value: 1
      objectReference: {fileID: 0}
    - target: {fileID: 22496272, guid: da4fe8893aba4af448c9b3bd21fe20e1, type: 3}
      propertyPath: m_LocalRotation.x
      value: -0
      objectReference: {fileID: 0}
    - target: {fileID: 22496272, guid: da4fe8893aba4af448c9b3bd21fe20e1, type: 3}
      propertyPath: m_LocalRotation.y
      value: -0
      objectReference: {fileID: 0}
    - target: {fileID: 22496272, guid: da4fe8893aba4af448c9b3bd21fe20e1, type: 3}
      propertyPath: m_LocalRotation.z
      value: -0
      objectReference: {fileID: 0}
    - target: {fileID: 22496272, guid: da4fe8893aba4af448c9b3bd21fe20e1, type: 3}
      propertyPath: m_AnchoredPosition.x
      value: 0
      objectReference: {fileID: 0}
    - target: {fileID: 22496272, guid: da4fe8893aba4af448c9b3bd21fe20e1, type: 3}
      propertyPath: m_AnchoredPosition.y
      value: 0
      objectReference: {fileID: 0}
    - target: {fileID: 22496272, guid: da4fe8893aba4af448c9b3bd21fe20e1, type: 3}
      propertyPath: m_LocalEulerAnglesHint.x
      value: 0
      objectReference: {fileID: 0}
    - target: {fileID: 22496272, guid: da4fe8893aba4af448c9b3bd21fe20e1, type: 3}
      propertyPath: m_LocalEulerAnglesHint.y
      value: 0
      objectReference: {fileID: 0}
    - target: {fileID: 22496272, guid: da4fe8893aba4af448c9b3bd21fe20e1, type: 3}
      propertyPath: m_LocalEulerAnglesHint.z
      value: 0
      objectReference: {fileID: 0}
    m_RemovedComponents: []
  m_SourcePrefab: {fileID: 100100000, guid: da4fe8893aba4af448c9b3bd21fe20e1, type: 3}
--- !u!224 &1534830969035088679 stripped
RectTransform:
  m_CorrespondingSourceObject: {fileID: 22496272, guid: da4fe8893aba4af448c9b3bd21fe20e1,
    type: 3}
  m_PrefabInstance: {fileID: 1534830969021638455}
  m_PrefabAsset: {fileID: 0}
--- !u!114 &1534830969014673523 stripped
MonoBehaviour:
  m_CorrespondingSourceObject: {fileID: 11454276, guid: da4fe8893aba4af448c9b3bd21fe20e1,
    type: 3}
  m_PrefabInstance: {fileID: 1534830969021638455}
  m_PrefabAsset: {fileID: 0}
  m_GameObject: {fileID: 0}
  m_Enabled: 1
  m_EditorHideFlags: 0
  m_Script: {fileID: 11500000, guid: 6d0d38103b3bf7a4d9d8b7d56efd981f, type: 3}
  m_Name: 
  m_EditorClassIdentifier: 
