%YAML 1.1
%TAG !u! tag:unity3d.com,2011:
--- !u!114 &11400000
MonoBehaviour:
  m_ObjectHideFlags: 0
  m_PrefabParentObject: {fileID: 0}
  m_PrefabInternal: {fileID: 0}
  m_GameObject: {fileID: 0}
  m_Enabled: 1
  m_EditorHideFlags: 0
  m_Script: {fileID: 11500000, guid: 713cb6527224443ab8de47f3dabe7d37, type: 3}
  m_Name: RoadPropsConfig
  m_EditorClassIdentifier: 
  _trafficLights:
  - Prefab: {fileID: 1788233573933622, guid: e58a7526ecb8e434fbeec00509efd8a5, type: 2}
    LeftTop:
      Offset: {x: 0, y: 0, z: 1}
      Rotation: {x: 0, y: 90, z: 0}
    LeftBottom:
      Offset: {x: 0, y: 0, z: 0}
      Rotation: {x: 0, y: 0, z: 0}
    RightTop:
      Offset: {x: 1, y: 0, z: 1}
      Rotation: {x: 0, y: 180, z: 0}
    RightBottom:
      Offset: {x: 1, y: 0, z: 0}
      Rotation: {x: 0, y: -90, z: 0}
  - Prefab: {fileID: 1753457209872246, guid: 4849e7a616f94894d897ac7a0d9ba36d, type: 2}
    LeftTop:
      Offset: {x: 0, y: 0, z: 1}
      Rotation: {x: 0, y: 90, z: 0}
    LeftBottom:
      Offset: {x: 0, y: 0, z: 0}
      Rotation: {x: 0, y: 0, z: 0}
    RightTop:
      Offset: {x: 1, y: 0, z: 1}
      Rotation: {x: 0, y: 180, z: 0}
    RightBottom:
      Offset: {x: 1, y: 0, z: 0}
      Rotation: {x: 0, y: -90, z: 0}
  - Prefab: {fileID: 1077269705812352, guid: 98cf052e16bb6c5439f2ddd5be3f66be, type: 2}
    LeftTop:
      Offset: {x: 0.5, y: 0, z: 1}
      Rotation: {x: 0, y: 0, z: 0}
    LeftBottom:
      Offset: {x: 0, y: 0, z: 0.5}
      Rotation: {x: 0, y: -90, z: 0}
    RightTop:
      Offset: {x: 1, y: 0, z: 0.5}
      Rotation: {x: 0, y: 90, z: 0}
    RightBottom:
      Offset: {x: 0.5, y: 0, z: 0}
      Rotation: {x: 0, y: 180, z: 0}
  - Prefab: {fileID: 1120576007749734, guid: cae0ee83885b30747adc3889209c2b2a, type: 2}
    LeftTop:
      Offset: {x: 0.5, y: 0, z: 1}
      Rotation: {x: 0, y: 0, z: 0}
    LeftBottom:
      Offset: {x: 0, y: 0, z: 0.5}
      Rotation: {x: 0, y: -90, z: 0}
    RightTop:
      Offset: {x: 1, y: 0, z: 0.5}
      Rotation: {x: 0, y: 90, z: 0}
    RightBottom:
      Offset: {x: 0.5, y: 0, z: 0}
      Rotation: {x: 0, y: 180, z: 0}
  _signs:
  - Prefab: {fileID: 1974612651034594, guid: 6b70a3430700a224b89a0f1f57a5edce, type: 2}
    LeftTop:
      Offset: {x: 1, y: 0, z: 0.5}
      Rotation: {x: 0, y: -90, z: 0}
    LeftBottom:
      Offset: {x: 0.5, y: 0, z: 1}
      Rotation: {x: 0, y: 180, z: 0}
    RightTop:
      Offset: {x: 0.5, y: 0, z: 0}
      Rotation: {x: 0, y: 0, z: 0}
    RightBottom:
      Offset: {x: 0, y: 0, z: 0.5}
      Rotation: {x: 0, y: 90, z: 0}
  - Prefab: {fileID: 1087684066727742, guid: 93f93e459e900bf488263bbe8d1cb9f6, type: 2}
    LeftTop:
      Offset: {x: 0, y: 0, z: 0.5}
      Rotation: {x: 0, y: 180, z: 0}
    LeftBottom:
      Offset: {x: 0.5, y: 0, z: 0}
      Rotation: {x: 0, y: 90, z: 0}
    RightTop:
      Offset: {x: 0.5, y: 0, z: 1}
      Rotation: {x: 0, y: -90, z: 0}
    RightBottom:
      Offset: {x: 1, y: 0, z: 0.5}
      Rotation: {x: 0, y: 0, z: 0}
  - Prefab: {fileID: 1084375502120552, guid: 40f39ce12932cd543a5810cc4563e33c, type: 2}
    LeftTop:
      Offset: {x: 1, y: 0, z: 0.5}
      Rotation: {x: 0, y: 180, z: 0}
    LeftBottom:
      Offset: {x: 0.5, y: 0, z: 1}
      Rotation: {x: 0, y: 90, z: 0}
    RightTop:
      Offset: {x: 0.5, y: 0, z: 0}
      Rotation: {x: 0, y: -90, z: 0}
    RightBottom:
      Offset: {x: 0, y: 0, z: 0.5}
      Rotation: {x: 0, y: 0, z: 0}
  - Prefab: {fileID: 1363612509673358, guid: 5a879cbcfcc666b42be67239c985b008, type: 2}
    LeftTop:
      Offset: {x: 0.5, y: 0, z: 0.5}
      Rotation: {x: 0, y: 0, z: 0}
    LeftBottom:
      Offset: {x: 0.5, y: 0, z: 0.5}
      Rotation: {x: 0, y: -90, z: 0}
    RightTop:
      Offset: {x: 0.5, y: 0, z: 0.5}
      Rotation: {x: 0, y: 90, z: 0}
    RightBottom:
      Offset: {x: 0.5, y: 0, z: 0.5}
      Rotation: {x: 0, y: 180, z: 0}
  - Prefab: {fileID: 1490711722598914, guid: a9a320820b8f35d4fb57dd74e692369d, type: 2}
    LeftTop:
      Offset: {x: 0.5, y: 0, z: 0.5}
      Rotation: {x: 0, y: 0, z: 0}
    LeftBottom:
      Offset: {x: 0.5, y: 0, z: 0.5}
      Rotation: {x: 0, y: -90, z: 0}
    RightTop:
      Offset: {x: 0.5, y: 0, z: 0.5}
      Rotation: {x: 0, y: 90, z: 0}
    RightBottom:
      Offset: {x: 0.5, y: 0, z: 0.5}
      Rotation: {x: 0, y: 180, z: 0}
  _lamps:
  - Prefab: {fileID: 1591439344343548, guid: 87ebe830addab364f9355e394575df3d, type: 2}
    Transform:
      Offset: {x: 0.5, y: 0, z: 0.5}
      Rotation: {x: 0, y: 0, z: 0}
    TileTypes: 00000000
    MarkingsTypes: 0100000002000000
  - Prefab: {fileID: 1591439344343548, guid: 87ebe830addab364f9355e394575df3d, type: 2}
    Transform:
      Offset: {x: 0.5, y: 0, z: 0.5}
      Rotation: {x: 0, y: 90, z: 0}
    TileTypes: 01000000
    MarkingsTypes: 0100000002000000
  - Prefab: {fileID: 1964313318427824, guid: e1b965e25f25f8641831b083ba95706f, type: 2}
    Transform:
      Offset: {x: 0.5, y: 0, z: 0.5}
      Rotation: {x: 0, y: 0, z: 0}
    TileTypes: 00000000
    MarkingsTypes: 0300000004000000
  - Prefab: {fileID: 1964313318427824, guid: e1b965e25f25f8641831b083ba95706f, type: 2}
    Transform:
      Offset: {x: 0.5, y: 0, z: 0.5}
      Rotation: {x: 0, y: 90, z: 0}
    TileTypes: 01000000
    MarkingsTypes: 0300000004000000
