%YAML 1.1
%TAG !u! tag:unity3d.com,2011:
--- !u!129 &1
PlayerSettings:
  m_ObjectHideFlags: 0
  serializedVersion: 22
  productGUID: 069a6b5ebc0f9f04c862f38c565d8eb3
  AndroidProfiler: 0
  AndroidFilterTouchesWhenObscured: 0
  AndroidEnableSustainedPerformanceMode: 0
  defaultScreenOrientation: 3
  targetDevice: 2
  useOnDemandResources: 0
  accelerometerFrequency: 60
  companyName: Nanoreality Games
  productName: My Nano World
  defaultCursor: {fileID: 0}
  cursorHotspot: {x: 0, y: 0}
  m_SplashScreenBackgroundColor: {r: 0.13725491, g: 0.12156863, b: 0.1254902, a: 1}
  m_ShowUnitySplashScreen: 1
  m_ShowUnitySplashLogo: 1
  m_SplashScreenOverlayOpacity: 1
  m_SplashScreenAnimation: 2
  m_SplashScreenLogoStyle: 1
  m_SplashScreenDrawMode: 1
  m_SplashScreenBackgroundAnimationZoom: 1
  m_SplashScreenLogoAnimationZoom: 1
  m_SplashScreenBackgroundLandscapeAspect: 1
  m_SplashScreenBackgroundPortraitAspect: 1
  m_SplashScreenBackgroundLandscapeUvs:
    serializedVersion: 2
    x: 0
    y: 0
    width: 1
    height: 1
  m_SplashScreenBackgroundPortraitUvs:
    serializedVersion: 2
    x: 0
    y: 0
    width: 1
    height: 1
  m_SplashScreenLogos:
  - logo: {fileID: 21300000, guid: 9f24667dafe3e0d4fb23e4cca7838e40, type: 3}
    duration: 3
  m_VirtualRealitySplashScreen: {fileID: 0}
  m_HolographicTrackingLossScreen: {fileID: 0}
  defaultScreenWidth: 1024
  defaultScreenHeight: 768
  defaultScreenWidthWeb: 960
  defaultScreenHeightWeb: 600
  m_StereoRenderingPath: 0
  m_ActiveColorSpace: 0
  m_MTRendering: 1
  mipStripping: 0
  numberOfMipsStripped: 0
  m_StackTraceTypes: 010000000100000001000000010000000100000001000000
  iosShowActivityIndicatorOnLoading: -1
  androidShowActivityIndicatorOnLoading: -1
  iosUseCustomAppBackgroundBehavior: 0
  iosAllowHTTPDownload: 1
  allowedAutorotateToPortrait: 0
  allowedAutorotateToPortraitUpsideDown: 0
  allowedAutorotateToLandscapeRight: 1
  allowedAutorotateToLandscapeLeft: 1
  useOSAutorotation: 1
  use32BitDisplayBuffer: 0
  preserveFramebufferAlpha: 0
  disableDepthAndStencilBuffers: 0
  androidStartInFullscreen: 1
  androidRenderOutsideSafeArea: 0
  androidUseSwappy: 1
  androidBlitType: 0
  defaultIsNativeResolution: 1
  macRetinaSupport: 1
  runInBackground: 1
  captureSingleScreen: 0
  muteOtherAudioSources: 0
  Prepare IOS For Recording: 0
  Force IOS Speakers When Recording: 0
  deferSystemGesturesMode: 0
  hideHomeButton: 1
  submitAnalytics: 0
  usePlayerLog: 0
  bakeCollisionMeshes: 0
  forceSingleInstance: 0
  useFlipModelSwapchain: 1
  resizableWindow: 0
  useMacAppStoreValidation: 0
  macAppStoreCategory: public.app-category.games
  gpuSkinning: 0
  xboxPIXTextureCapture: 0
  xboxEnableAvatar: 0
  xboxEnableKinect: 0
  xboxEnableKinectAutoTracking: 0
  xboxEnableFitness: 0
  visibleInBackground: 0
  allowFullscreenSwitch: 1
  fullscreenMode: 1
  xboxSpeechDB: 0
  xboxEnableHeadOrientation: 0
  xboxEnableGuest: 0
  xboxEnablePIXSampling: 0
  metalFramebufferOnly: 0
  xboxOneResolution: 0
  xboxOneSResolution: 0
  xboxOneXResolution: 3
  xboxOneMonoLoggingLevel: 0
  xboxOneLoggingLevel: 1
  xboxOneDisableEsram: 0
  xboxOneEnableTypeOptimization: 0
  xboxOnePresentImmediateThreshold: 0
  switchQueueCommandMemory: 1048576
  switchQueueControlMemory: 16384
  switchQueueComputeMemory: 262144
  switchNVNShaderPoolsGranularity: 33554432
  switchNVNDefaultPoolsGranularity: 16777216
  switchNVNOtherPoolsGranularity: 16777216
  switchNVNMaxPublicTextureIDCount: 0
  switchNVNMaxPublicSamplerIDCount: 0
  stadiaPresentMode: 0
  stadiaTargetFramerate: 0
  vulkanNumSwapchainBuffers: 3
  vulkanEnableSetSRGBWrite: 0
  vulkanEnablePreTransform: 0
  vulkanEnableLateAcquireNextImage: 0
  m_SupportedAspectRatios:
    4:3: 0
    5:4: 0
    16:10: 1
    16:9: 1
    Others: 1
  bundleVersion: 2.06
  preloadedAssets: []
  metroInputSource: 0
  wsaTransparentSwapchain: 0
  m_HolographicPauseOnTrackingLoss: 1
  xboxOneDisableKinectGpuReservation: 0
  xboxOneEnable7thCore: 0
  vrSettings:
    enable360StereoCapture: 0
  isWsaHolographicRemotingEnabled: 0
  enableFrameTimingStats: 0
  useHDRDisplay: 0
  D3DHDRBitDepth: 0
  m_ColorGamuts: 00000000
  targetPixelDensity: 30
  resolutionScalingMode: 0
  androidSupportedAspectRatio: 1
  androidMaxAspectRatio: 2.1
  applicationIdentifier:
    Android: net.mbc.nanoreality
    Standalone: unity.Nanoreality Games.My Nano World
    Tizen: com.nanorealitygames.mynanoworld
    iPhone: net.mbc.nanoworld
    tvOS: com.nanorealitygames.mynanoworld
  buildNumber:
    Standalone: 0
    iPhone: 60
    tvOS: 0
  overrideDefaultApplicationIdentifier: 1
  AndroidBundleVersionCode: 346
  AndroidMinSdkVersion: 26
  AndroidTargetSdkVersion: 29
  AndroidPreferredInstallLocation: 0
  aotOptions: nrgctx-trampolines=8096,nimt-trampolines=8096,ntrampolines=4048
  stripEngineCode: 1
  iPhoneStrippingLevel: 0
  iPhoneScriptCallOptimization: 0
  ForceInternetPermission: 0
  ForceSDCardPermission: 0
  CreateWallpaper: 0
  APKExpansionFiles: 0
  keepLoadedShadersAlive: 1
  StripUnusedMeshComponents: 0
  VertexChannelCompressionMask: 214
  iPhoneSdkVersion: 988
  iOSTargetOSVersionString: 11.0
  tvOSSdkVersion: 0
  tvOSRequireExtendedGameController: 0
  tvOSTargetOSVersionString: 11.0
  uIPrerenderedIcon: 0
  uIRequiresPersistentWiFi: 0
  uIRequiresFullScreen: 1
  uIStatusBarHidden: 1
  uIExitOnSuspend: 0
  uIStatusBarStyle: 0
  appleTVSplashScreen: {fileID: 0}
  appleTVSplashScreen2x: {fileID: 0}
  tvOSSmallIconLayers: []
  tvOSSmallIconLayers2x: []
  tvOSLargeIconLayers: []
  tvOSLargeIconLayers2x: []
  tvOSTopShelfImageLayers: []
  tvOSTopShelfImageLayers2x: []
  tvOSTopShelfImageWideLayers: []
  tvOSTopShelfImageWideLayers2x: []
  iOSLaunchScreenType: 1
  iOSLaunchScreenPortrait: {fileID: 0}
  iOSLaunchScreenLandscape: {fileID: 0}
  iOSLaunchScreenBackgroundColor:
    serializedVersion: 2
    rgba: 4280427042
  iOSLaunchScreenFillPct: 50
  iOSLaunchScreenSize: 100
  iOSLaunchScreenCustomXibPath: 
  iOSLaunchScreeniPadType: 1
  iOSLaunchScreeniPadImage: {fileID: 0}
  iOSLaunchScreeniPadBackgroundColor:
    serializedVersion: 2
    rgba: 4280427042
  iOSLaunchScreeniPadFillPct: 50
  iOSLaunchScreeniPadSize: 100
  iOSLaunchScreeniPadCustomXibPath: 
  iOSLaunchScreenCustomStoryboardPath: 
  iOSLaunchScreeniPadCustomStoryboardPath: 
  iOSDeviceRequirements: []
  iOSURLSchemes: []
  iOSBackgroundModes: 0
  iOSMetalForceHardShadows: 0
  metalEditorSupport: 0
  metalAPIValidation: 1
  iOSRenderExtraFrameOnPause: 1
  iosCopyPluginsCodeInsteadOfSymlink: 0
  appleDeveloperTeamID: 
  iOSManualSigningProvisioningProfileID: 143801c5-dd08-43ab-8e01-98797db6335c
  tvOSManualSigningProvisioningProfileID: 
  iOSManualSigningProvisioningProfileType: 2
  tvOSManualSigningProvisioningProfileType: 0
  appleEnableAutomaticSigning: 1
  iOSRequireARKit: 0
  iOSAutomaticallyDetectAndAddCapabilities: 1
  appleEnableProMotion: 0
  shaderPrecisionModel: 0
  clonedFromGUID: 00000000000000000000000000000000
  templatePackageId: 
  templateDefaultScene: 
  useCustomMainManifest: 1
  useCustomLauncherManifest: 0
  useCustomMainGradleTemplate: 1
  useCustomLauncherGradleManifest: 0
  useCustomBaseGradleTemplate: 0
  useCustomGradlePropertiesTemplate: 1
  useCustomProguardFile: 0
  AndroidTargetArchitectures: 2
  AndroidSplashScreenScale: 2
  androidSplashScreen: {fileID: 0}
  AndroidKeystoreName: S:/Not keys/My_Nano_World.keystore
  AndroidKeyaliasName: nanoreality
  AndroidBuildApkPerCpuArchitecture: 0
  AndroidTVCompatibility: 0
  AndroidIsGame: 1
  AndroidEnableTango: 0
  androidEnableBanner: 1
  androidUseLowAccuracyLocation: 0
  androidUseCustomKeystore: 0
  m_AndroidBanners:
  - width: 320
    height: 180
    banner: {fileID: 0}
  androidGamepadSupportLevel: 0
  AndroidMinifyWithR8: 0
  AndroidMinifyRelease: 0
  AndroidMinifyDebug: 0
  AndroidValidateAppBundleSize: 1
  AndroidAppBundleSizeToValidate: 150
  m_BuildTargetIcons:
  - m_BuildTarget: 
    m_Icons:
    - serializedVersion: 2
      m_Icon: {fileID: 2800000, guid: 3745d9796360f51478986094958975fe, type: 3}
      m_Width: 128
      m_Height: 128
      m_Kind: 0
  - m_BuildTarget: iPhone
    m_Icons:
    - serializedVersion: 2
      m_Icon: {fileID: 2800000, guid: 24c4dc10de91243da9deee3ccc40e375, type: 3}
      m_Width: 180
      m_Height: 180
      m_Kind: 0
    - serializedVersion: 2
      m_Icon: {fileID: 2800000, guid: a87febb9609cf4923891fee99ddfbfab, type: 3}
      m_Width: 167
      m_Height: 167
      m_Kind: 0
    - serializedVersion: 2
      m_Icon: {fileID: 2800000, guid: 9d7a7dfa41c2a4c35bed6be1113f8029, type: 3}
      m_Width: 152
      m_Height: 152
      m_Kind: 0
    - serializedVersion: 2
      m_Icon: {fileID: 2800000, guid: fa3ea947bbfbe49c2b5366b874a6c82a, type: 3}
      m_Width: 144
      m_Height: 144
      m_Kind: 0
    - serializedVersion: 2
      m_Icon: {fileID: 2800000, guid: c687a98b54ff64e9895cb64300fdb692, type: 3}
      m_Width: 120
      m_Height: 120
      m_Kind: 0
    - serializedVersion: 2
      m_Icon: {fileID: 2800000, guid: fa3ea947bbfbe49c2b5366b874a6c82a, type: 3}
      m_Width: 114
      m_Height: 114
      m_Kind: 0
    - serializedVersion: 2
      m_Icon: {fileID: 2800000, guid: b7b578c6cae1440d6b3d3f781ca23659, type: 3}
      m_Width: 76
      m_Height: 76
      m_Kind: 0
    - serializedVersion: 2
      m_Icon: {fileID: 2800000, guid: 96c83c4f7be1b44b5af8b9bfd879c814, type: 3}
      m_Width: 72
      m_Height: 72
      m_Kind: 0
    - serializedVersion: 2
      m_Icon: {fileID: 2800000, guid: ad4a6061523de494892a4c90b481546f, type: 3}
      m_Width: 57
      m_Height: 57
      m_Kind: 0
    - serializedVersion: 2
      m_Icon: {fileID: 2800000, guid: c687a98b54ff64e9895cb64300fdb692, type: 3}
      m_Width: 120
      m_Height: 120
      m_Kind: 3
    - serializedVersion: 2
      m_Icon: {fileID: 2800000, guid: dd8ec613367294a6d948e9915cd7e631, type: 3}
      m_Width: 80
      m_Height: 80
      m_Kind: 3
    - serializedVersion: 2
      m_Icon: {fileID: 2800000, guid: 6ab1b8765f1f748f6a7b8796614da480, type: 3}
      m_Width: 40
      m_Height: 40
      m_Kind: 3
    - serializedVersion: 2
      m_Icon: {fileID: 2800000, guid: 8588057c07d87436f89c1d369770caa1, type: 3}
      m_Width: 87
      m_Height: 87
      m_Kind: 1
    - serializedVersion: 2
      m_Icon: {fileID: 2800000, guid: 33f4e12d0881f40ceabfe8d135746d88, type: 3}
      m_Width: 58
      m_Height: 58
      m_Kind: 1
    - serializedVersion: 2
      m_Icon: {fileID: 2800000, guid: daeab192513394ca987a5de07e7705ea, type: 3}
      m_Width: 29
      m_Height: 29
      m_Kind: 1
    - serializedVersion: 2
      m_Icon: {fileID: 2800000, guid: f9876e725135d460fb4131a1273d74a6, type: 3}
      m_Width: 60
      m_Height: 60
      m_Kind: 2
    - serializedVersion: 2
      m_Icon: {fileID: 2800000, guid: 6ab1b8765f1f748f6a7b8796614da480, type: 3}
      m_Width: 40
      m_Height: 40
      m_Kind: 2
    - serializedVersion: 2
      m_Icon: {fileID: 2800000, guid: dc65c51712339411fa8feeb6f9b711cb, type: 3}
      m_Width: 20
      m_Height: 20
      m_Kind: 2
    - serializedVersion: 2
      m_Icon: {fileID: 2800000, guid: 8fe583a74e90d4ed2b220f408a09d3a6, type: 3}
      m_Width: 1024
      m_Height: 1024
      m_Kind: 4
  m_BuildTargetPlatformIcons:
  - m_BuildTarget: Android
    m_Icons:
    - m_Textures:
      - {fileID: 0}
      m_Width: 192
      m_Height: 192
      m_Kind: 1
      m_SubKind: 
    - m_Textures:
      - {fileID: 0}
      m_Width: 144
      m_Height: 144
      m_Kind: 1
      m_SubKind: 
    - m_Textures:
      - {fileID: 0}
      m_Width: 96
      m_Height: 96
      m_Kind: 1
      m_SubKind: 
    - m_Textures:
      - {fileID: 0}
      m_Width: 72
      m_Height: 72
      m_Kind: 1
      m_SubKind: 
    - m_Textures:
      - {fileID: 0}
      m_Width: 48
      m_Height: 48
      m_Kind: 1
      m_SubKind: 
    - m_Textures:
      - {fileID: 0}
      m_Width: 36
      m_Height: 36
      m_Kind: 1
      m_SubKind: 
    - m_Textures:
      - {fileID: 0}
      m_Width: 192
      m_Height: 192
      m_Kind: 0
      m_SubKind: 
    - m_Textures:
      - {fileID: 0}
      m_Width: 144
      m_Height: 144
      m_Kind: 0
      m_SubKind: 
    - m_Textures:
      - {fileID: 0}
      m_Width: 96
      m_Height: 96
      m_Kind: 0
      m_SubKind: 
    - m_Textures:
      - {fileID: 0}
      m_Width: 72
      m_Height: 72
      m_Kind: 0
      m_SubKind: 
    - m_Textures:
      - {fileID: 0}
      m_Width: 48
      m_Height: 48
      m_Kind: 0
      m_SubKind: 
    - m_Textures:
      - {fileID: 0}
      m_Width: 36
      m_Height: 36
      m_Kind: 0
      m_SubKind: 
    - m_Textures:
      - {fileID: 2800000, guid: 2c8aacf6641c44149a6edf916b33ff45, type: 3}
      - {fileID: 2800000, guid: f63ae45749fcf8e42a6f0bb4aec83b4d, type: 3}
      m_Width: 432
      m_Height: 432
      m_Kind: 2
      m_SubKind: 
    - m_Textures: []
      m_Width: 324
      m_Height: 324
      m_Kind: 2
      m_SubKind: 
    - m_Textures: []
      m_Width: 216
      m_Height: 216
      m_Kind: 2
      m_SubKind: 
    - m_Textures: []
      m_Width: 162
      m_Height: 162
      m_Kind: 2
      m_SubKind: 
    - m_Textures: []
      m_Width: 108
      m_Height: 108
      m_Kind: 2
      m_SubKind: 
    - m_Textures: []
      m_Width: 81
      m_Height: 81
      m_Kind: 2
      m_SubKind: 
  m_BuildTargetBatching:
  - m_BuildTarget: Android
    m_StaticBatching: 1
    m_DynamicBatching: 1
  m_BuildTargetGraphicsJobs:
  - m_BuildTarget: MacStandaloneSupport
    m_GraphicsJobs: 0
  - m_BuildTarget: Switch
    m_GraphicsJobs: 1
  - m_BuildTarget: MetroSupport
    m_GraphicsJobs: 1
  - m_BuildTarget: AppleTVSupport
    m_GraphicsJobs: 0
  - m_BuildTarget: BJMSupport
    m_GraphicsJobs: 1
  - m_BuildTarget: LinuxStandaloneSupport
    m_GraphicsJobs: 1
  - m_BuildTarget: PS4Player
    m_GraphicsJobs: 1
  - m_BuildTarget: iOSSupport
    m_GraphicsJobs: 0
  - m_BuildTarget: WindowsStandaloneSupport
    m_GraphicsJobs: 1
  - m_BuildTarget: XboxOnePlayer
    m_GraphicsJobs: 1
  - m_BuildTarget: LuminSupport
    m_GraphicsJobs: 0
  - m_BuildTarget: CloudRendering
    m_GraphicsJobs: 1
  - m_BuildTarget: AndroidPlayer
    m_GraphicsJobs: 0
  - m_BuildTarget: WebGLSupport
    m_GraphicsJobs: 0
  m_BuildTargetGraphicsJobMode:
  - m_BuildTarget: PS4Player
    m_GraphicsJobMode: 0
  - m_BuildTarget: XboxOnePlayer
    m_GraphicsJobMode: 0
  m_BuildTargetGraphicsAPIs:
  - m_BuildTarget: AndroidPlayer
    m_APIs: 0b00000008000000
    m_Automatic: 1
  - m_BuildTarget: iOSSupport
    m_APIs: 10000000
    m_Automatic: 1
  m_BuildTargetVRSettings:
  - m_BuildTarget: Android
    m_Enabled: 0
    m_Devices:
    - Oculus
  - m_BuildTarget: Windows Store Apps
    m_Enabled: 0
    m_Devices: []
  - m_BuildTarget: N3DS
    m_Enabled: 0
    m_Devices: []
  - m_BuildTarget: PS3
    m_Enabled: 0
    m_Devices: []
  - m_BuildTarget: PS4
    m_Enabled: 0
    m_Devices:
    - PlayStationVR
  - m_BuildTarget: PSM
    m_Enabled: 0
    m_Devices: []
  - m_BuildTarget: PSP2
    m_Enabled: 0
    m_Devices: []
  - m_BuildTarget: SamsungTV
    m_Enabled: 0
    m_Devices: []
  - m_BuildTarget: Standalone
    m_Enabled: 0
    m_Devices:
    - Oculus
  - m_BuildTarget: Tizen
    m_Enabled: 0
    m_Devices: []
  - m_BuildTarget: WebGL
    m_Enabled: 0
    m_Devices: []
  - m_BuildTarget: WebPlayer
    m_Enabled: 0
    m_Devices: []
  - m_BuildTarget: WiiU
    m_Enabled: 0
    m_Devices: []
  - m_BuildTarget: Xbox360
    m_Enabled: 0
    m_Devices: []
  - m_BuildTarget: XboxOne
    m_Enabled: 0
    m_Devices: []
  - m_BuildTarget: iPhone
    m_Enabled: 0
    m_Devices: []
  - m_BuildTarget: tvOS
    m_Enabled: 0
    m_Devices: []
  openGLRequireES31: 0
  openGLRequireES31AEP: 0
  openGLRequireES32: 0
  m_TemplateCustomTags: {}
  mobileMTRendering:
    Android: 1
    iPhone: 1
    tvOS: 1
  m_BuildTargetGroupLightmapEncodingQuality:
  - m_BuildTarget: Standalone
    m_EncodingQuality: 1
  - m_BuildTarget: XboxOne
    m_EncodingQuality: 1
  - m_BuildTarget: PS4
    m_EncodingQuality: 1
  m_BuildTargetGroupLightmapSettings: []
  m_BuildTargetNormalMapEncoding: []
  playModeTestRunnerEnabled: 0
  runPlayModeTestAsEditModeTest: 0
  actionOnDotNetUnhandledException: 1
  enableInternalProfiler: 0
  logObjCUncaughtExceptions: 1
  enableCrashReportAPI: 1
  cameraUsageDescription: 
  locationUsageDescription: 
  microphoneUsageDescription: 
  switchNMETAOverride: 
  switchNetLibKey: 
  switchSocketMemoryPoolSize: 6144
  switchSocketAllocatorPoolSize: 128
  switchSocketConcurrencyLimit: 14
  switchScreenResolutionBehavior: 2
  switchUseCPUProfiler: 0
  switchUseGOLDLinker: 0
  switchLTOSetting: 0
  switchApplicationID: 0x0005000C10000001
  switchNSODependencies: 
  switchTitleNames_0: 
  switchTitleNames_1: 
  switchTitleNames_2: 
  switchTitleNames_3: 
  switchTitleNames_4: 
  switchTitleNames_5: 
  switchTitleNames_6: 
  switchTitleNames_7: 
  switchTitleNames_8: 
  switchTitleNames_9: 
  switchTitleNames_10: 
  switchTitleNames_11: 
  switchTitleNames_12: 
  switchTitleNames_13: 
  switchTitleNames_14: 
  switchTitleNames_15: 
  switchPublisherNames_0: 
  switchPublisherNames_1: 
  switchPublisherNames_2: 
  switchPublisherNames_3: 
  switchPublisherNames_4: 
  switchPublisherNames_5: 
  switchPublisherNames_6: 
  switchPublisherNames_7: 
  switchPublisherNames_8: 
  switchPublisherNames_9: 
  switchPublisherNames_10: 
  switchPublisherNames_11: 
  switchPublisherNames_12: 
  switchPublisherNames_13: 
  switchPublisherNames_14: 
  switchPublisherNames_15: 
  switchIcons_0: {fileID: 0}
  switchIcons_1: {fileID: 0}
  switchIcons_2: {fileID: 0}
  switchIcons_3: {fileID: 0}
  switchIcons_4: {fileID: 0}
  switchIcons_5: {fileID: 0}
  switchIcons_6: {fileID: 0}
  switchIcons_7: {fileID: 0}
  switchIcons_8: {fileID: 0}
  switchIcons_9: {fileID: 0}
  switchIcons_10: {fileID: 0}
  switchIcons_11: {fileID: 0}
  switchIcons_12: {fileID: 0}
  switchIcons_13: {fileID: 0}
  switchIcons_14: {fileID: 0}
  switchIcons_15: {fileID: 0}
  switchSmallIcons_0: {fileID: 0}
  switchSmallIcons_1: {fileID: 0}
  switchSmallIcons_2: {fileID: 0}
  switchSmallIcons_3: {fileID: 0}
  switchSmallIcons_4: {fileID: 0}
  switchSmallIcons_5: {fileID: 0}
  switchSmallIcons_6: {fileID: 0}
  switchSmallIcons_7: {fileID: 0}
  switchSmallIcons_8: {fileID: 0}
  switchSmallIcons_9: {fileID: 0}
  switchSmallIcons_10: {fileID: 0}
  switchSmallIcons_11: {fileID: 0}
  switchSmallIcons_12: {fileID: 0}
  switchSmallIcons_13: {fileID: 0}
  switchSmallIcons_14: {fileID: 0}
  switchSmallIcons_15: {fileID: 0}
  switchManualHTML: 
  switchAccessibleURLs: 
  switchLegalInformation: 
  switchMainThreadStackSize: 1048576
  switchPresenceGroupId: 0x0005000C10000001
  switchLogoHandling: 0
  switchReleaseVersion: 0
  switchDisplayVersion: 1.0.0
  switchStartupUserAccount: 0
  switchTouchScreenUsage: 0
  switchSupportedLanguagesMask: 0
  switchLogoType: 0
  switchApplicationErrorCodeCategory: 
  switchUserAccountSaveDataSize: 0
  switchUserAccountSaveDataJournalSize: 0
  switchApplicationAttribute: 0
  switchCardSpecSize: 4
  switchCardSpecClock: 25
  switchRatingsMask: 0
  switchRatingsInt_0: 0
  switchRatingsInt_1: 0
  switchRatingsInt_2: 0
  switchRatingsInt_3: 0
  switchRatingsInt_4: 0
  switchRatingsInt_5: 0
  switchRatingsInt_6: 0
  switchRatingsInt_7: 0
  switchRatingsInt_8: 0
  switchRatingsInt_9: 0
  switchRatingsInt_10: 0
  switchRatingsInt_11: 0
  switchRatingsInt_12: 0
  switchLocalCommunicationIds_0: 0x0005000C10000001
  switchLocalCommunicationIds_1: 
  switchLocalCommunicationIds_2: 
  switchLocalCommunicationIds_3: 
  switchLocalCommunicationIds_4: 
  switchLocalCommunicationIds_5: 
  switchLocalCommunicationIds_6: 
  switchLocalCommunicationIds_7: 
  switchParentalControl: 0
  switchAllowsScreenshot: 1
  switchAllowsVideoCapturing: 1
  switchAllowsRuntimeAddOnContentInstall: 0
  switchDataLossConfirmation: 0
  switchUserAccountLockEnabled: 0
  switchSystemResourceMemory: 16777216
  switchSupportedNpadStyles: 3
  switchNativeFsCacheSize: 32
  switchIsHoldTypeHorizontal: 0
  switchSupportedNpadCount: 8
  switchSocketConfigEnabled: 0
  switchTcpInitialSendBufferSize: 32
  switchTcpInitialReceiveBufferSize: 64
  switchTcpAutoSendBufferSizeMax: 256
  switchTcpAutoReceiveBufferSizeMax: 256
  switchUdpSendBufferSize: 9
  switchUdpReceiveBufferSize: 42
  switchSocketBufferEfficiency: 4
  switchSocketInitializeEnabled: 1
  switchNetworkInterfaceManagerInitializeEnabled: 1
  switchPlayerConnectionEnabled: 1
  switchUseNewStyleFilepaths: 0
  switchUseMicroSleepForYield: 1
  switchMicroSleepForYieldTime: 25
  ps4NPAgeRating: 12
  ps4NPTitleSecret: 
  ps4NPTrophyPackPath: 
  ps4ParentalLevel: 1
  ps4ContentID: ED1633-NPXX51362_00-0000000000000000
  ps4Category: 0
  ps4MasterVersion: 01.00
  ps4AppVersion: 01.00
  ps4AppType: 0
  ps4ParamSfxPath: 
  ps4VideoOutPixelFormat: 0
  ps4VideoOutInitialWidth: 1920
  ps4VideoOutBaseModeInitialWidth: 1920
  ps4VideoOutReprojectionRate: 120
  ps4PronunciationXMLPath: 
  ps4PronunciationSIGPath: 
  ps4BackgroundImagePath: 
  ps4StartupImagePath: 
  ps4StartupImagesFolder: 
  ps4IconImagesFolder: 
  ps4SaveDataImagePath: 
  ps4SdkOverride: 
  ps4BGMPath: 
  ps4ShareFilePath: 
  ps4ShareOverlayImagePath: 
  ps4PrivacyGuardImagePath: 
  ps4ExtraSceSysFile: 
  ps4NPtitleDatPath: 
  ps4RemotePlayKeyAssignment: -1
  ps4RemotePlayKeyMappingDir: 
  ps4PlayTogetherPlayerCount: 0
  ps4EnterButtonAssignment: 1
  ps4ApplicationParam1: 0
  ps4ApplicationParam2: 0
  ps4ApplicationParam3: 0
  ps4ApplicationParam4: 0
  ps4DownloadDataSize: 0
  ps4GarlicHeapSize: 2048
  ps4ProGarlicHeapSize: 2560
  playerPrefsMaxSize: 32768
  ps4Passcode: frAQBc8Wsa1xVPfvJcrgRYwTiizs2trQ
  ps4pnSessions: 1
  ps4pnPresence: 1
  ps4pnFriends: 1
  ps4pnGameCustomData: 1
  playerPrefsSupport: 0
  enableApplicationExit: 0
  resetTempFolder: 1
  restrictedAudioUsageRights: 0
  ps4UseResolutionFallback: 0
  ps4ReprojectionSupport: 0
  ps4UseAudio3dBackend: 0
  ps4UseLowGarlicFragmentationMode: 1
  ps4SocialScreenEnabled: 0
  ps4ScriptOptimizationLevel: 3
  ps4Audio3dVirtualSpeakerCount: 14
  ps4attribCpuUsage: 0
  ps4PatchPkgPath: 
  ps4PatchLatestPkgPath: 
  ps4PatchChangeinfoPath: 
  ps4PatchDayOne: 0
  ps4attribUserManagement: 0
  ps4attribMoveSupport: 0
  ps4attrib3DSupport: 0
  ps4attribShareSupport: 0
  ps4attribExclusiveVR: 0
  ps4disableAutoHideSplash: 0
  ps4videoRecordingFeaturesUsed: 0
  ps4contentSearchFeaturesUsed: 0
  ps4CompatibilityPS5: 0
  ps4GPU800MHz: 1
  ps4attribEyeToEyeDistanceSettingVR: 0
  ps4IncludedModules: []
  ps4attribVROutputEnabled: 0
  monoEnv: 
  splashScreenBackgroundSourceLandscape: {fileID: 0}
  splashScreenBackgroundSourcePortrait: {fileID: 0}
  blurSplashScreenBackground: 1
  spritePackerPolicy: TightPackerPolicy
  webGLMemorySize: 256
  webGLExceptionSupport: 1
  webGLNameFilesAsHashes: 0
  webGLDataCaching: 0
  webGLDebugSymbols: 0
  webGLEmscriptenArgs: 
  webGLModulesDirectory: 
  webGLTemplate: APPLICATION:Default
  webGLAnalyzeBuildSize: 0
  webGLUseEmbeddedResources: 0
  webGLCompressionFormat: 1
  webGLWasmArithmeticExceptions: 0
  webGLLinkerTarget: 1
  webGLThreadsSupport: 0
  webGLDecompressionFallback: 0
  scriptingDefineSymbols:
    1: ENABLE_LOG;DebugLog;TMP_PRESENT;ODIN_INSPECTOR;DDNA_IOS_PUSH_NOTIFICATIONS_REMOVED;TextMeshPro;ODIN_INSPECTOR_3
    4: ENABLE_LOG;TMP_PRESENT;DDNA_IOS_PUSH_NOTIFICATIONS_REMOVED;TextMeshPro;ODIN_INSPECTOR;ODIN_INSPECTOR_3
    7: ENABLE_LOG;TMP_PRESENT;ODIN_INSPECTOR;DDNA_IOS_PUSH_NOTIFICATIONS_REMOVED;TextMeshPro;ODIN_INSPECTOR_3
    13: TMP_PRESENT;TextMeshPro
    14: TextMeshPro
    19: TextMeshPro
    21: TextMeshPro
    25: TMP_PRESENT;TextMeshPro
    26: TMP_PRESENT;TextMeshPro
    27: TextMeshPro
    28: TextMeshPro
    29: TextMeshPro
    30: TextMeshPro
    32: TextMeshPro
    33: TextMeshPro
  additionalCompilerArguments: {}
  platformArchitecture:
    iPhone: 1
    tvOS: 1
  scriptingBackend:
    Android: 1
    Standalone: 0
    WP8: 2
    WebGL: 1
    WebPlayer: 0
    Windows Store Apps: 2
    iPhone: 1
    tvOS: 1
  il2cppCompilerConfiguration:
    Android: 2
  managedStrippingLevel: {}
  incrementalIl2cppBuild:
    iPhone: 0
    tvOS: 0
  suppressCommonWarnings: 1
  allowUnsafeCode: 1
  useDeterministicCompilation: 1
  enableRoslynAnalyzers: 1
  additionalIl2CppArgs: 
  scriptingRuntimeVersion: 1
  gcIncremental: 1
  assemblyVersionValidation: 1
  gcWBarrierValidation: 0
  apiCompatibilityLevelPerPlatform:
    Android: 3
    Standalone: 3
    iPhone: 3
  m_RenderingPath: 1
  m_MobileRenderingPath: 1
  metroPackageName: NanoReality
  metroPackageVersion: 
  metroCertificatePath: 
  metroCertificatePassword: 
  metroCertificateSubject: 
  metroCertificateIssuer: 
  metroCertificateNotAfter: 0000000000000000
  metroApplicationDescription: NanoReality
  wsaImages: {}
  metroTileShortName: 
  metroTileShowName: 0
  metroMediumTileShowName: 0
  metroLargeTileShowName: 0
  metroWideTileShowName: 0
  metroSupportStreamingInstall: 0
  metroLastRequiredScene: 0
  metroDefaultTileSize: 1
  metroTileForegroundText: 1
  metroTileBackgroundColor: {r: 0, g: 0, b: 0, a: 1}
  metroSplashScreenBackgroundColor: {r: 0, g: 0, b: 0, a: 1}
  metroSplashScreenUseBackgroundColor: 0
  platformCapabilities: {}
  metroTargetDeviceFamilies: {}
  metroFTAName: 
  metroFTAFileTypes: []
  metroProtocolName: 
  XboxOneProductId: 
  XboxOneUpdateKey: 
  XboxOneSandboxId: 
  XboxOneContentId: 
  XboxOneTitleId: 
  XboxOneSCId: 
  XboxOneGameOsOverridePath: 
  XboxOnePackagingOverridePath: 
  XboxOneAppManifestOverridePath: 
  XboxOneVersion: 1.0.0.0
  XboxOnePackageEncryption: 0
  XboxOnePackageUpdateGranularity: 2
  XboxOneDescription: 
  XboxOneLanguage:
  - enus
  XboxOneCapability: []
  XboxOneGameRating: {}
  XboxOneIsContentPackage: 0
  XboxOneEnhancedXboxCompatibilityMode: 0
  XboxOneEnableGPUVariability: 0
  XboxOneSockets: {}
  XboxOneSplashScreen: {fileID: 0}
  XboxOneAllowedProductIds: []
  XboxOnePersistentLocalStorageSize: 0
  XboxOneXTitleMemory: 8
  XboxOneOverrideIdentityName: 
  XboxOneOverrideIdentityPublisher: 
  vrEditorSettings: {}
  cloudServicesEnabled:
    Analytics: 0
    Build: 1
    Collab: 0
    ErrorHub: 0
    Game_Performance: 0
    Hub: 0
    Purchasing: 1
    UNet: 1
    Unity_Ads: 0
  luminIcon:
    m_Name: 
    m_ModelFolderPath: 
    m_PortalFolderPath: 
  luminCert:
    m_CertPath: 
    m_SignPackage: 1
  luminIsChannelApp: 0
  luminVersion:
    m_VersionCode: 1
    m_VersionName: 
  apiCompatibilityLevel: 6
  activeInputHandler: 0
  cloudProjectId: 29808d0d-ccdf-408f-b204-5114e13ecf1f
  framebufferDepthMemorylessMode: 0
  qualitySettingsNames: []
  projectName: My Nano World
  organizationId: nanoreality-games-ltd
  cloudEnabled: 0
  legacyClampBlendShapeWeights: 1
  virtualTexturingSupportEnabled: 0
