%YAML 1.1
%TAG !u! tag:unity3d.com,2011:
--- !u!74 &7400000
AnimationClip:
  m_ObjectHideFlags: 0
  m_CorrespondingSourceObject: {fileID: 0}
  m_PrefabInstance: {fileID: 0}
  m_PrefabAsset: {fileID: 0}
  m_Name: 57_Restaurant_work
  serializedVersion: 6
  m_Legacy: 0
  m_Compressed: 0
  m_UseHighQualityCurve: 1
  m_RotationCurves: []
  m_CompressedRotationCurves: []
  m_EulerCurves: []
  m_PositionCurves: []
  m_ScaleCurves: []
  m_FloatCurves: []
  m_PPtrCurves:
  - curve:
    - time: 0
      value: {fileID: -1507477928810184496, guid: c90708957d926c6478ea034b8082bf75,
        type: 3}
    - time: 0.06666667
      value: {fileID: 5196194479780627665, guid: c90708957d926c6478ea034b8082bf75,
        type: 3}
    - time: 0.13333334
      value: {fileID: -718464106054238781, guid: c90708957d926c6478ea034b8082bf75,
        type: 3}
    - time: 0.2
      value: {fileID: -3267550749389450128, guid: c90708957d926c6478ea034b8082bf75,
        type: 3}
    - time: 0.26666668
      value: {fileID: 6173527100477698248, guid: c90708957d926c6478ea034b8082bf75,
        type: 3}
    - time: 0.33333334
      value: {fileID: -5584193068675668091, guid: c90708957d926c6478ea034b8082bf75,
        type: 3}
    - time: 0.4
      value: {fileID: 5737868085527170953, guid: c90708957d926c6478ea034b8082bf75,
        type: 3}
    - time: 0.46666667
      value: {fileID: 6663182138890169260, guid: c90708957d926c6478ea034b8082bf75,
        type: 3}
    - time: 1.1333333
      value: {fileID: 6663182138890169260, guid: c90708957d926c6478ea034b8082bf75,
        type: 3}
    - time: 1.2
      value: {fileID: 5737868085527170953, guid: c90708957d926c6478ea034b8082bf75,
        type: 3}
    - time: 1.2666667
      value: {fileID: -5584193068675668091, guid: c90708957d926c6478ea034b8082bf75,
        type: 3}
    - time: 1.3333334
      value: {fileID: 6173527100477698248, guid: c90708957d926c6478ea034b8082bf75,
        type: 3}
    - time: 1.4
      value: {fileID: -3267550749389450128, guid: c90708957d926c6478ea034b8082bf75,
        type: 3}
    - time: 1.4666667
      value: {fileID: -718464106054238781, guid: c90708957d926c6478ea034b8082bf75,
        type: 3}
    - time: 1.5333333
      value: {fileID: 5196194479780627665, guid: c90708957d926c6478ea034b8082bf75,
        type: 3}
    - time: 1.6
      value: {fileID: -1507477928810184496, guid: c90708957d926c6478ea034b8082bf75,
        type: 3}
    - time: 1.6666666
      value: {fileID: -7069106916666441331, guid: c90708957d926c6478ea034b8082bf75,
        type: 3}
    - time: 1.7333333
      value: {fileID: -193917249008178235, guid: c90708957d926c6478ea034b8082bf75,
        type: 3}
    - time: 1.8
      value: {fileID: 2115019937821645596, guid: c90708957d926c6478ea034b8082bf75,
        type: 3}
    - time: 1.8666667
      value: {fileID: -5817800580907262520, guid: c90708957d926c6478ea034b8082bf75,
        type: 3}
    - time: 1.9333333
      value: {fileID: -5332091940596796814, guid: c90708957d926c6478ea034b8082bf75,
        type: 3}
    - time: 2
      value: {fileID: 6429945232019832172, guid: c90708957d926c6478ea034b8082bf75,
        type: 3}
    - time: 2.6666667
      value: {fileID: 6429945232019832172, guid: c90708957d926c6478ea034b8082bf75,
        type: 3}
    - time: 2.7333333
      value: {fileID: -5332091940596796814, guid: c90708957d926c6478ea034b8082bf75,
        type: 3}
    - time: 2.8
      value: {fileID: -5817800580907262520, guid: c90708957d926c6478ea034b8082bf75,
        type: 3}
    - time: 2.8666666
      value: {fileID: 2115019937821645596, guid: c90708957d926c6478ea034b8082bf75,
        type: 3}
    - time: 2.9333334
      value: {fileID: -193917249008178235, guid: c90708957d926c6478ea034b8082bf75,
        type: 3}
    - time: 3
      value: {fileID: -7069106916666441331, guid: c90708957d926c6478ea034b8082bf75,
        type: 3}
    attribute: m_Sprite
    path: Anim_singboard
    classID: 212
    script: {fileID: 0}
  m_SampleRate: 15
  m_WrapMode: 2
  m_Bounds:
    m_Center: {x: 0, y: 0, z: 0}
    m_Extent: {x: 0, y: 0, z: 0}
  m_ClipBindingConstant:
    genericBindings:
    - serializedVersion: 2
      path: 3376052557
      attribute: 0
      script: {fileID: 0}
      typeID: 212
      customType: 23
      isPPtrCurve: 1
    pptrCurveMapping:
    - {fileID: -1507477928810184496, guid: c90708957d926c6478ea034b8082bf75, type: 3}
    - {fileID: 5196194479780627665, guid: c90708957d926c6478ea034b8082bf75, type: 3}
    - {fileID: -718464106054238781, guid: c90708957d926c6478ea034b8082bf75, type: 3}
    - {fileID: -3267550749389450128, guid: c90708957d926c6478ea034b8082bf75, type: 3}
    - {fileID: 6173527100477698248, guid: c90708957d926c6478ea034b8082bf75, type: 3}
    - {fileID: -5584193068675668091, guid: c90708957d926c6478ea034b8082bf75, type: 3}
    - {fileID: 5737868085527170953, guid: c90708957d926c6478ea034b8082bf75, type: 3}
    - {fileID: 6663182138890169260, guid: c90708957d926c6478ea034b8082bf75, type: 3}
    - {fileID: 6663182138890169260, guid: c90708957d926c6478ea034b8082bf75, type: 3}
    - {fileID: 5737868085527170953, guid: c90708957d926c6478ea034b8082bf75, type: 3}
    - {fileID: -5584193068675668091, guid: c90708957d926c6478ea034b8082bf75, type: 3}
    - {fileID: 6173527100477698248, guid: c90708957d926c6478ea034b8082bf75, type: 3}
    - {fileID: -3267550749389450128, guid: c90708957d926c6478ea034b8082bf75, type: 3}
    - {fileID: -718464106054238781, guid: c90708957d926c6478ea034b8082bf75, type: 3}
    - {fileID: 5196194479780627665, guid: c90708957d926c6478ea034b8082bf75, type: 3}
    - {fileID: -1507477928810184496, guid: c90708957d926c6478ea034b8082bf75, type: 3}
    - {fileID: -7069106916666441331, guid: c90708957d926c6478ea034b8082bf75, type: 3}
    - {fileID: -193917249008178235, guid: c90708957d926c6478ea034b8082bf75, type: 3}
    - {fileID: 2115019937821645596, guid: c90708957d926c6478ea034b8082bf75, type: 3}
    - {fileID: -5817800580907262520, guid: c90708957d926c6478ea034b8082bf75, type: 3}
    - {fileID: -5332091940596796814, guid: c90708957d926c6478ea034b8082bf75, type: 3}
    - {fileID: 6429945232019832172, guid: c90708957d926c6478ea034b8082bf75, type: 3}
    - {fileID: 6429945232019832172, guid: c90708957d926c6478ea034b8082bf75, type: 3}
    - {fileID: -5332091940596796814, guid: c90708957d926c6478ea034b8082bf75, type: 3}
    - {fileID: -5817800580907262520, guid: c90708957d926c6478ea034b8082bf75, type: 3}
    - {fileID: 2115019937821645596, guid: c90708957d926c6478ea034b8082bf75, type: 3}
    - {fileID: -193917249008178235, guid: c90708957d926c6478ea034b8082bf75, type: 3}
    - {fileID: -7069106916666441331, guid: c90708957d926c6478ea034b8082bf75, type: 3}
  m_AnimationClipSettings:
    serializedVersion: 2
    m_AdditiveReferencePoseClip: {fileID: 0}
    m_AdditiveReferencePoseTime: 0
    m_StartTime: 0
    m_StopTime: 3.0666666
    m_OrientationOffsetY: 0
    m_Level: 0
    m_CycleOffset: 0
    m_HasAdditiveReferencePose: 0
    m_LoopTime: 1
    m_LoopBlend: 0
    m_LoopBlendOrientation: 0
    m_LoopBlendPositionY: 0
    m_LoopBlendPositionXZ: 0
    m_KeepOriginalOrientation: 0
    m_KeepOriginalPositionY: 1
    m_KeepOriginalPositionXZ: 0
    m_HeightFromFeet: 0
    m_Mirror: 0
  m_EditorCurves: []
  m_EulerEditorCurves: []
  m_HasGenericRootTransform: 0
  m_HasMotionFloatCurves: 0
  m_Events: []
