%YAML 1.1
%TAG !u! tag:unity3d.com,2011:
--- !u!114 &11400000
MonoBehaviour:
  m_ObjectHideFlags: 0
  m_CorrespondingSourceObject: {fileID: 0}
  m_PrefabInstance: {fileID: 0}
  m_PrefabAsset: {fileID: 0}
  m_GameObject: {fileID: 0}
  m_Enabled: 1
  m_EditorHideFlags: 0
  m_Script: {fileID: 11500000, guid: 19ed8778bd4242d4fbbe74a285d8e866, type: 3}
  m_Name: GlobalMapObjectViewSettings
  m_EditorClassIdentifier: 
  _motionSelectColor: {r: 0.5019608, g: 0.5019608, b: 0.5019608, a: 1}
  _motionSelectTweenTime: 1
  _motionReadyProductMoveUpDownTime: 0.5
  _defaultShader: {fileID: 4800000, guid: b5a800d28fbcc27429e07b44f781d905, type: 3}
  _semiTransparentShader: {fileID: 4800000, guid: b5a800d28fbcc27429e07b44f781d905,
    type: 3}
  _semiTransparentColor: {r: 1, g: 1, b: 1, a: 0.3137255}
  _buildingHighlightingShader: {fileID: 4800000, guid: 59737ef8cda854094b91e64aee5baf80,
    type: 3}
  _buildingNeedHappinessColor:
    MainColor: {r: 0, g: 1, b: 0, a: 0.60784316}
    OutlineColor: {r: 0, g: 1, b: 0, a: 1}
  _buildingProduceHappinessColor:
    MainColor: {r: 1, g: 1, b: 1, a: 1}
    OutlineColor: {r: 1, g: 1, b: 1, a: 1}
  _buildingNeedPowerColor:
    MainColor: {r: 1, g: 1, b: 0, a: 0.6666667}
    OutlineColor: {r: 1, g: 0.837, b: 0, a: 1}
  _buildingProducePowerColor:
    MainColor: {r: 1, g: 1, b: 1, a: 1}
    OutlineColor: {r: 1, g: 1, b: 1, a: 1}
  _buildingProductDragColor:
    MainColor: {r: 1, g: 1, b: 1, a: 1}
    OutlineColor: {r: 0, g: 0.9882353, b: 1, a: 1}
  _buildingNeedSupplyColor:
    MainColor: {r: 1, g: 0.4044118, b: 0.958925, a: 0.616}
    OutlineColor: {r: 1, g: 1, b: 1, a: 1}
  _buildingSupplyColor:
    MainColor: {r: 1, g: 1, b: 1, a: 1}
    OutlineColor: {r: 0.8884383, g: 0.19117647, b: 1, a: 1}
  _electricityAreaColor:
    MainColor: {r: 1, g: 1, b: 0, a: 0.5019608}
    OutlineColor: {r: 1, g: 1, b: 1, a: 1}
  _happinessAreaColor:
    MainColor: {r: 0, g: 1, b: 0, a: 0.5019608}
    OutlineColor: {r: 1, g: 1, b: 1, a: 1}
  _supplyAreaColor:
    MainColor: {r: 0.9353957, g: 0.33088237, b: 1, a: 0.528}
    OutlineColor: {r: 1, g: 1, b: 1, a: 1}
  _buildingDisabledColor:
    MainColor: {r: 1, g: 0, b: 0, a: 0.6666667}
    OutlineColor: {r: 1, g: 0, b: 0, a: 1}
  _buildingNotFreeAreaMaterial: {fileID: 2100000, guid: ef58678ad4781604e8c3c49412cf79d9,
    type: 2}
  _buildingSemiTransparentMaterial: {fileID: 2100000, guid: b2caa5fd9369cbf43aa82369c59541d4,
    type: 2}
  _buildingInFreeAreaMaterial: {fileID: 2100000, guid: 8ff9f5c1c65cae54b8a7fd9679cdc792,
    type: 2}
  _serviceConnectionsColor:
    MainColor: {r: 0.1206423, g: 0.36904374, b: 0.9330137, a: 0.8}
    OutlineColor: {r: 0, g: 0, b: 0, a: 0}
  _mipMapBias: -1.65
  _agroFieldsShader: {fileID: 4800000, guid: f4f28c145bf30344cac854bb6abdf9de, type: 3}
  _slotSizeSmall: 145
  _slotSizeBig: 183
  _reflectionTexture: {fileID: 2800000, guid: a42e987b7a5fd4f4dbb64e624e06da8a, type: 3}
  _colorReflect: {r: 0.25882354, g: 0.7803922, b: 0.9333334, a: 1}
  _reflectColorWitdhTreshold: 0.4
  _cloudSpeed: {x: 0.016, y: 0.006, z: 0, w: 0}
  _reflectionPower: 5
  _reflectionUvDistoriton: 1
  _cameraDisplacePower: 0.01
  _selectedBuildingMaterial: {fileID: 2100000, guid: 1a404b54201bf3d488f2d5064a5e5833,
    type: 2}
  _selectedBuildingIdleMaterial: {fileID: 2100000, guid: 943073cae28c8b0478acdd56158ac8ee,
    type: 2}
  _selectedAoeBuildingIdleMaterial: {fileID: 2100000, guid: 3f099e0ebe4edf647babc8f90a3f900b,
    type: 2}
  _aoeDisabledMaterial: {fileID: 2100000, guid: cdc24dffef288c9418945ca92d9e1c5f,
    type: 2}
  _aoeMaterial: {fileID: 11400000, guid: 80bfdbb266994efc9631a2fc6dccc6ba, type: 2}
  _roadConstructorSettings: {fileID: 11400000, guid: bc2e141384e7605459f7b2bf627a5722,
    type: 2}
