%YAML 1.1
%TAG !u! tag:unity3d.com,2011:
--- !u!114 &11400000
MonoBehaviour:
  m_ObjectHideFlags: 0
  m_CorrespondingSourceObject: {fileID: 0}
  m_PrefabInstance: {fileID: 0}
  m_PrefabAsset: {fileID: 0}
  m_GameObject: {fileID: 0}
  m_Enabled: 1
  m_EditorHideFlags: 0
  m_Script: {fileID: 11500000, guid: c9173578e3304dafac963e3fc9530cc9, type: 3}
  m_Name: TutorialFlowSettings
  m_EditorClassIdentifier: 
  serializationData:
    SerializedFormat: 2
    SerializedBytes: 
    ReferencedUnityObjects: []
    SerializedBytesString: 
    Prefab: {fileID: 0}
    PrefabModificationsReferencedUnityObjects: []
    PrefabModifications: []
    SerializationNodes: []
  _tutorialSteps:
  - _step: 1
    _hudState:
      LevelPanel:
        IsActive: 0
        IsInteractable: 0
      HappinessPanel:
        IsActive: 0
        IsInteractable: 0
      PopulationPanel:
        IsActive: 0
        IsInteractable: 0
      WarehousePanel:
        IsActive: 0
        IsInteractable: 0
      QuestsPanel:
        IsActive: 0
        IsInteractable: 0
      BuildingsPanel:
        IsActive: 0
        IsInteractable: 0
      RoadPanel:
        IsActive: 0
        IsInteractable: 0
      BalancePanel:
        IsActive: 0
        IsInteractable: 0
      SettingsPanel:
        IsActive: 0
        IsInteractable: 0
      FoodSupplyPanel:
        IsActive: 0
        IsInteractable: 0
  - _step: 2
    _hudState:
      LevelPanel:
        IsActive: 0
        IsInteractable: 0
      HappinessPanel:
        IsActive: 0
        IsInteractable: 0
      PopulationPanel:
        IsActive: 0
        IsInteractable: 0
      WarehousePanel:
        IsActive: 0
        IsInteractable: 0
      QuestsPanel:
        IsActive: 0
        IsInteractable: 0
      BuildingsPanel:
        IsActive: 0
        IsInteractable: 0
      RoadPanel:
        IsActive: 1
        IsInteractable: 0
      BalancePanel:
        IsActive: 0
        IsInteractable: 0
      SettingsPanel:
        IsActive: 0
        IsInteractable: 0
      FoodSupplyPanel:
        IsActive: 0
        IsInteractable: 0
  - _step: 3
    _hudState:
      LevelPanel:
        IsActive: 1
        IsInteractable: 0
      HappinessPanel:
        IsActive: 0
        IsInteractable: 0
      PopulationPanel:
        IsActive: 1
        IsInteractable: 0
      WarehousePanel:
        IsActive: 0
        IsInteractable: 0
      QuestsPanel:
        IsActive: 0
        IsInteractable: 0
      BuildingsPanel:
        IsActive: 0
        IsInteractable: 0
      RoadPanel:
        IsActive: 0
        IsInteractable: 0
      BalancePanel:
        IsActive: 0
        IsInteractable: 0
      SettingsPanel:
        IsActive: 0
        IsInteractable: 0
      FoodSupplyPanel:
        IsActive: 0
        IsInteractable: 0
  - _step: 4
    _hudState:
      LevelPanel:
        IsActive: 1
        IsInteractable: 0
      HappinessPanel:
        IsActive: 0
        IsInteractable: 0
      PopulationPanel:
        IsActive: 1
        IsInteractable: 0
      WarehousePanel:
        IsActive: 0
        IsInteractable: 0
      QuestsPanel:
        IsActive: 0
        IsInteractable: 0
      BuildingsPanel:
        IsActive: 1
        IsInteractable: 0
      RoadPanel:
        IsActive: 1
        IsInteractable: 0
      BalancePanel:
        IsActive: 1
        IsInteractable: 0
      SettingsPanel:
        IsActive: 0
        IsInteractable: 0
      FoodSupplyPanel:
        IsActive: 0
        IsInteractable: 0
  - _step: 5
    _hudState:
      LevelPanel:
        IsActive: 1
        IsInteractable: 0
      HappinessPanel:
        IsActive: 0
        IsInteractable: 0
      PopulationPanel:
        IsActive: 1
        IsInteractable: 0
      WarehousePanel:
        IsActive: 0
        IsInteractable: 0
      QuestsPanel:
        IsActive: 0
        IsInteractable: 0
      BuildingsPanel:
        IsActive: 1
        IsInteractable: 0
      RoadPanel:
        IsActive: 1
        IsInteractable: 0
      BalancePanel:
        IsActive: 1
        IsInteractable: 0
      SettingsPanel:
        IsActive: 0
        IsInteractable: 0
      FoodSupplyPanel:
        IsActive: 0
        IsInteractable: 0
  - _step: 6
    _hudState:
      LevelPanel:
        IsActive: 1
        IsInteractable: 0
      HappinessPanel:
        IsActive: 0
        IsInteractable: 0
      PopulationPanel:
        IsActive: 1
        IsInteractable: 0
      WarehousePanel:
        IsActive: 1
        IsInteractable: 0
      QuestsPanel:
        IsActive: 0
        IsInteractable: 0
      BuildingsPanel:
        IsActive: 1
        IsInteractable: 0
      RoadPanel:
        IsActive: 1
        IsInteractable: 0
      BalancePanel:
        IsActive: 1
        IsInteractable: 0
      SettingsPanel:
        IsActive: 0
        IsInteractable: 0
      FoodSupplyPanel:
        IsActive: 0
        IsInteractable: 0
  - _step: 11
    _hudState:
      LevelPanel:
        IsActive: 1
        IsInteractable: 0
      HappinessPanel:
        IsActive: 0
        IsInteractable: 0
      PopulationPanel:
        IsActive: 1
        IsInteractable: 0
      WarehousePanel:
        IsActive: 1
        IsInteractable: 0
      QuestsPanel:
        IsActive: 1
        IsInteractable: 0
      BuildingsPanel:
        IsActive: 1
        IsInteractable: 0
      RoadPanel:
        IsActive: 1
        IsInteractable: 0
      BalancePanel:
        IsActive: 1
        IsInteractable: 0
      SettingsPanel:
        IsActive: 0
        IsInteractable: 0
      FoodSupplyPanel:
        IsActive: 0
        IsInteractable: 0
  - _step: 13
    _hudState:
      LevelPanel:
        IsActive: 1
        IsInteractable: 0
      HappinessPanel:
        IsActive: 1
        IsInteractable: 0
      PopulationPanel:
        IsActive: 1
        IsInteractable: 0
      WarehousePanel:
        IsActive: 1
        IsInteractable: 0
      QuestsPanel:
        IsActive: 1
        IsInteractable: 0
      BuildingsPanel:
        IsActive: 1
        IsInteractable: 0
      RoadPanel:
        IsActive: 1
        IsInteractable: 0
      BalancePanel:
        IsActive: 1
        IsInteractable: 0
      SettingsPanel:
        IsActive: 1
        IsInteractable: 0
      FoodSupplyPanel:
        IsActive: 0
        IsInteractable: 0
  - _step: 14
    _hudState:
      LevelPanel:
        IsActive: 1
        IsInteractable: 0
      HappinessPanel:
        IsActive: 1
        IsInteractable: 0
      PopulationPanel:
        IsActive: 1
        IsInteractable: 0
      WarehousePanel:
        IsActive: 1
        IsInteractable: 0
      QuestsPanel:
        IsActive: 1
        IsInteractable: 0
      BuildingsPanel:
        IsActive: 1
        IsInteractable: 0
      RoadPanel:
        IsActive: 1
        IsInteractable: 0
      BalancePanel:
        IsActive: 1
        IsInteractable: 0
      SettingsPanel:
        IsActive: 1
        IsInteractable: 0
      FoodSupplyPanel:
        IsActive: 0
        IsInteractable: 0
  - _step: 16
    _hudState:
      LevelPanel:
        IsActive: 1
        IsInteractable: 0
      HappinessPanel:
        IsActive: 1
        IsInteractable: 0
      PopulationPanel:
        IsActive: 1
        IsInteractable: 0
      WarehousePanel:
        IsActive: 1
        IsInteractable: 0
      QuestsPanel:
        IsActive: 1
        IsInteractable: 0
      BuildingsPanel:
        IsActive: 1
        IsInteractable: 0
      RoadPanel:
        IsActive: 1
        IsInteractable: 0
      BalancePanel:
        IsActive: 1
        IsInteractable: 0
      SettingsPanel:
        IsActive: 1
        IsInteractable: 0
      FoodSupplyPanel:
        IsActive: 0
        IsInteractable: 0
  - _step: 17
    _hudState:
      LevelPanel:
        IsActive: 1
        IsInteractable: 0
      HappinessPanel:
        IsActive: 1
        IsInteractable: 0
      PopulationPanel:
        IsActive: 1
        IsInteractable: 0
      WarehousePanel:
        IsActive: 1
        IsInteractable: 0
      QuestsPanel:
        IsActive: 0
        IsInteractable: 0
      BuildingsPanel:
        IsActive: 1
        IsInteractable: 0
      RoadPanel:
        IsActive: 1
        IsInteractable: 0
      BalancePanel:
        IsActive: 1
        IsInteractable: 0
      SettingsPanel:
        IsActive: 1
        IsInteractable: 0
      FoodSupplyPanel:
        IsActive: 0
        IsInteractable: 0
  - _step: 1000
    _hudState:
      LevelPanel:
        IsActive: 1
        IsInteractable: 0
      HappinessPanel:
        IsActive: 1
        IsInteractable: 0
      PopulationPanel:
        IsActive: 1
        IsInteractable: 0
      WarehousePanel:
        IsActive: 1
        IsInteractable: 0
      QuestsPanel:
        IsActive: 1
        IsInteractable: 0
      BuildingsPanel:
        IsActive: 1
        IsInteractable: 0
      RoadPanel:
        IsActive: 1
        IsInteractable: 0
      BalancePanel:
        IsActive: 1
        IsInteractable: 0
      SettingsPanel:
        IsActive: 1
        IsInteractable: 0
      FoodSupplyPanel:
        IsActive: 0
        IsInteractable: 0
